﻿2001 435.07490923490417
0 1 400 1 1
2 3 315.6626925167619 1 1
1 4 400 1 1
3 5 400 1 1
4 6 400 1 1
7 8 295.6457492034524 1 1
6 9 400.0000000000001 1 1
10 11 292.5246437165681 1 1
9 12 400.00000000000017 1 1
13 14 113.02969813439158 1 1
15 16 74.52865457405386 1 1
14 17 400.00000000000017 1 1
18 19 163.49770026352562 0.5 0.6666666666666666
20 21 1.5879189492338521 0.5 0.6666666666666666
22 23 130.6467380430407 1 1
24 25 94.41440194429465 1 1
4 26 300 0.5 0.6666666666666666
5 27 300 0.5 0.6666666666666666
19 28 300 0.5 0.6666666666666666
19 29 300 0.5 0.6666666666666666
21 30 300 0.5 0.6666666666666666
21 31 300 0.5 0.6666666666666666
23 32 400.00000000000045 1 1
33 34 179.11755225731233 1 1
8 35 300 0.5 0.6666666666666666
26 36 300 0.5 0.6666666666666666
26 37 300.00000000000006 0.5 0.6666666666666666
38 39 295.5291852564552 0.5 0.6666666666666666
40 41 205.1785991575425 0.5 0.6666666666666666
28 42 299.99999999999994 0.5 0.6666666666666666
43 44 136.0600432761831 0.5 0.6666666666666666
30 45 300 0.5 0.6666666666666666
30 46 300 0.5 0.6666666666666666
31 47 300 0.5 0.6666666666666666
0 2 84.33730748323805 1 1
31 2 296.17952123050907 0.5 0.6666666666666666
32 48 400.0000000000003 1 1
32 49 400.00000000000034 1 1
50 51 99.9413386854169 1 1
52 53 2.6263978031099398 0.5 0.6666666666666666
35 54 300.00000000000006 0.5 0.6666666666666666
35 55 300 0.5 0.6666666666666666
56 57 42.66510313878434 0.5 0.6666666666666666
37 58 300.00000000000017 0.5 0.6666666666666666
59 60 293.68720826358077 0.5 0.6666666666666666
3 20 298.4120810507661 0.5 0.6666666666666666
41 20 105.21534333658074 0.5 0.6666666666666666
42 61 299.99999999999983 0.5 0.6666666666666666
36 56 257.3348968612157 0.5 0.6666666666666666
42 56 247.43138610852841 0.5 0.6666666666666666
44 62 300 0.5 0.6666666666666666
45 63 300 0.5 0.6666666666666666
45 64 300 0.5 0.6666666666666666
46 65 300 0.5 0.6666666666666666
46 64 304.47655919656916 0.5 0.6666666666666666
66 67 5.37357099849451 0.5 0.6666666666666666
68 69 275.7120889477002 1 1
70 71 101.5392573121656 1 1
72 73 304.6111660801807 1 1
14 74 300 0.5 0.6666666666666666
53 75 300.00000000000006 0.5 0.6666666666666666
53 76 299.9999999999999 0.5 0.6666666666666666
54 77 300.0000000000001 0.5 0.6666666666666666
54 78 300.0000000000001 0.5 0.6666666666666666
27 38 4.470814743544792 0.5 0.6666666666666666
55 38 105.9297410893571 0.5 0.6666666666666666
55 79 300 0.5 0.6666666666666666
57 80 300.00000000000006 0.5 0.6666666666666666
57 81 299.99999999999994 0.5 0.6666666666666666
58 82 300.00000000000017 0.5 0.6666666666666666
58 83 300.00000000000006 0.5 0.6666666666666666
60 84 300 0.5 0.6666666666666666
60 85 300 0.5 0.6666666666666666
86 87 292.9977683197903 0.5 0.6666666666666666
62 88 300.00000000000006 0.5 0.6666666666666666
62 89 299.99999999999994 0.5 0.6666666666666666
63 90 300 0.5 0.6666666666666666
63 91 300 0.5 0.6666666666666666
64 92 300 0.5 0.6666666666666666
65 93 299.99999999999994 0.5 0.6666666666666666
67 94 300 0.5 0.6666666666666666
69 95 400.00000000000045 1 1
96 97 113.70264005505416 1 1
73 98 399.99999999999966 1 1
17 99 300 0.5 0.6666666666666666
100 101 1.1280762218729707 0.5 0.6666666666666666
102 103 299.41198232760445 0.5 0.6666666666666666
75 104 299.99999999999994 0.5 0.6666666666666666
76 105 299.9999999999999 0.5 0.6666666666666666
8 10 107.47535628343194 1 1
76 10 299.08754695107814 0.5 0.6666666666666666
106 107 282.4463207645035 0.5 0.6666666666666666
78 108 300.0000000000001 0.5 0.6666666666666666
78 109 300.0000000000001 0.5 0.6666666666666666
5 7 104.3542507965476 1 1
79 7 3.292816198244842 0.5 0.6666666666666666
80 110 300.00000000000006 0.5 0.6666666666666666
61 86 7.002231680209542 0.5 0.6666666666666666
80 86 190.52208421979677 0.5 0.6666666666666666
111 112 17.742206925097076 0.5 0.6666666666666666
81 113 300 0.5 0.6666666666666666
82 114 300.00000000000017 0.5 0.6666666666666666
81 111 282.25779307490274 0.5 0.6666666666666666
83 111 286.4341214724888 0.5 0.6666666666666666
115 116 291.33870115513264 0.5 0.6666666666666666
77 106 17.553679235496585 0.5 0.6666666666666666
85 106 117.87582944391568 0.5 0.6666666666666666
117 118 8.89300359113986 0.5 0.6666666666666666
87 119 299.99999999999983 0.5 0.6666666666666666
87 120 300 0.5 0.6666666666666666
89 121 299.9999999999999 0.5 0.6666666666666666
89 122 300 0.5 0.6666666666666666
90 123 300 0.5 0.6666666666666666
90 124 300 0.5 0.6666666666666666
125 126 60.282765789060896 0.5 0.6666666666666666
91 64 303.55296470201824 0.5 0.6666666666666666
92 127 300 0.5 0.6666666666666666
92 126 307.1059436864726 0.5 0.6666666666666666
93 128 300 0.5 0.6666666666666666
47 66 294.6264290015055 0.5 0.6666666666666666
93 66 277.31957679024447 0.5 0.6666666666666666
94 129 300.00000000000006 0.5 0.6666666666666666
95 130 400.00000000000074 1 1
97 131 400.0000000000002 1 1
98 132 399.9999999999999 1 1
133 134 11.599402498712294 0.5 0.6666666666666666
25 135 300 0.5 0.6666666666666666
99 136 300 0.5 0.6666666666666666
99 137 300.00000000000017 0.5 0.6666666666666666
138 139 291.0132564576116 0.5 0.6666666666666666
103 140 300.0000000000001 0.5 0.6666666666666666
103 141 300 0.5 0.6666666666666666
74 100 298.8719237781271 0.5 0.6666666666666666
104 100 113.4574768651017 0.5 0.6666666666666666
104 142 300.00000000000006 0.5 0.6666666666666666
105 143 299.9999999999999 0.5 0.6666666666666666
105 144 300.00000000000006 0.5 0.6666666666666666
107 145 300.0000000000001 0.5 0.6666666666666666
85 117 291.10699640886025 0.5 0.6666666666666666
107 117 135.4406858269779 0.5 0.6666666666666666
146 147 121.71442857145229 0.5 0.6666666666666666
148 149 122.22618784752642 0.5 0.6666666666666666
109 150 300.0000000000002 0.5 0.6666666666666666
110 151 300.00000000000006 0.5 0.6666666666666666
152 153 33.65606633926305 0.5 0.6666666666666666
112 154 299.9999999999999 0.5 0.6666666666666666
110 152 266.343933660737 0.5 0.6666666666666666
113 152 289.5897376616952 0.5 0.6666666666666666
113 155 300.0000000000001 0.5 0.6666666666666666
114 156 300.00000000000017 0.5 0.6666666666666666
157 158 298.0121930279237 0.5 0.6666666666666666
118 159 300.0000000000001 0.5 0.6666666666666666
119 160 299.99999999999983 0.5 0.6666666666666666
119 161 300 0.5 0.6666666666666666
162 163 11.42243412884513 0.5 0.6666666666666666
121 164 299.9999999999999 0.5 0.6666666666666666
165 166 140.63255221967086 0.5 0.6666666666666666
167 168 16.928630149131166 0.5 0.6666666666666666
123 169 300 0.5 0.6666666666666666
170 157 1.8040215457912598 0.5 0.6666666666666666
124 157 126.31326797585433 0.5 0.6666666666666666
124 171 300.0000000000001 0.5 0.6666666666666666
126 172 300.00000000000006 0.5 0.6666666666666666
127 173 300 0.5 0.6666666666666666
127 93 313.42968302848044 0.5 0.6666666666666666
128 174 300 0.5 0.6666666666666666
129 175 300.00000000000006 0.5 0.6666666666666666
130 176 400.00000000000074 1 1
177 178 263.8613598785023 1 1
132 179 399.9999999999999 1 1
34 180 300 0.5 0.6666666666666666
134 181 300.00000000000006 0.5 0.6666666666666666
134 182 299.99999999999994 0.5 0.6666666666666666
183 184 7.593175246819815 0.5 0.6666666666666666
136 185 300 0.5 0.6666666666666666
136 186 300 0.5 0.6666666666666666
137 187 300.00000000000017 0.5 0.6666666666666666
188 24 258.49265531966137 1 1
137 24 306.21464777747525 0.5 0.6666666666666666
189 190 281.33736485619977 0.5 0.6666666666666666
191 192 233.90851292531914 0.5 0.6666666666666666
139 189 18.662635143800255 0.5 0.6666666666666666
141 189 120.86451133226343 0.5 0.6666666666666666
141 193 299.9999999999999 0.5 0.6666666666666666
11 13 286.97030186560846 1 1
142 13 299.1832202459691 0.5 0.6666666666666666
11 52 297.37360219689003 0.5 0.6666666666666666
142 52 293.46067361748214 0.5 0.6666666666666666
143 194 299.9999999999999 0.5 0.6666666666666666
122 165 159.36744778032912 0.5 0.6666666666666666
144 165 45.106369293351314 0.5 0.6666666666666666
144 195 299.99999999999983 0.5 0.6666666666666666
145 196 300.0000000000001 0.5 0.6666666666666666
145 197 300 0.5 0.6666666666666666
147 198 300.00000000000034 0.5 0.6666666666666666
199 200 5.461661637733201 0.5 0.6666666666666666
149 201 299.99999999999983 0.5 0.6666666666666666
202 197 266.16707094139304 0.5 0.6666666666666666
149 199 294.5383383622668 0.5 0.6666666666666666
150 199 290.4490963684695 0.5 0.6666666666666666
151 160 284.02827212490797 0.5 0.6666666666666666
151 203 300 0.5 0.6666666666666666
204 205 35.707572743119634 0.5 0.6666666666666666
153 203 317.4641153628218 0.5 0.6666666666666666
154 206 299.9999999999999 0.5 0.6666666666666666
207 208 100.6308395489862 0.5 0.6666666666666666
209 208 297.6278786222682 0.5 0.6666666666666666
153 204 264.2924272568803 0.5 0.6666666666666666
155 204 260.7687634060257 0.5 0.6666666666666666
156 210 300.00000000000034 0.5 0.6666666666666666
12 15 325.4713454259463 1 1
156 15 315.53172934828405 0.5 0.6666666666666666
211 212 293.70376403428617 0.5 0.6666666666666666
159 213 300.0000000000001 0.5 0.6666666666666666
116 170 0.18378542628499403 0.5 0.6666666666666666
159 170 275.25722844958904 0.5 0.6666666666666666
160 214 299.99999999999983 0.5 0.6666666666666666
160 215 300.00000000000006 0.5 0.6666666666666666
161 216 300 0.5 0.6666666666666666
120 217 1.4059351925027805 0.5 0.6666666666666666
161 217 296.40628381522384 0.5 0.6666666666666666
218 219 58.16737437845231 0.5 0.6666666666666666
163 218 241.83262562154772 0.5 0.6666666666666666
220 218 90.40232310286358 0.5 0.6666666666666666
164 221 300 0.5 0.6666666666666666
166 222 300.0000000000001 0.5 0.6666666666666666
168 223 300 0.5 0.6666666666666666
224 211 4.857508051029162 0.5 0.6666666666666666
169 211 131.5544721111991 0.5 0.6666666666666666
169 225 299.99999999999994 0.5 0.6666666666666666
171 226 300.0000000000001 0.5 0.6666666666666666
84 115 8.661298844867224 0.5 0.6666666666666666
171 115 118.53237468205752 0.5 0.6666666666666666
172 227 300 0.5 0.6666666666666666
173 228 300 0.5 0.6666666666666666
173 128 317.90624751065155 0.5 0.6666666666666666
229 230 13.829901664881765 0.5 0.6666666666666666
231 232 291.4053193651948 0.5 0.6666666666666666
174 229 286.1700983351182 0.5 0.6666666666666666
175 229 254.65389466463145 0.5 0.6666666666666666
176 233 400.00000000000074 1 1
234 235 368.6897696507446 1 1
236 237 207.69345290900787 1 1
179 238 399.9999999999999 1 1
239 240 6.258368330829334 0.5 0.6666666666666666
241 242 283.61459726408344 0.5 0.6666666666666666
243 244 34.67000182511165 0.5 0.6666666666666666
245 246 51.51470624522899 0.5 0.6666666666666666
181 247 300.00000000000017 0.5 0.6666666666666666
182 248 299.99999999999994 0.5 0.6666666666666666
249 250 79.28005092979325 0.5 0.6666666666666666
184 251 299.99999999999983 0.5 0.6666666666666666
252 253 18.38813541624864 0.5 0.6666666666666666
101 138 8.986743542388442 0.5 0.6666666666666666
186 138 84.87812316224698 0.5 0.6666666666666666
180 241 16.38540273591658 0.5 0.6666666666666666
254 241 144.27203602646216 0.5 0.6666666666666666
25 255 212.7408477961203 1 1
187 255 312.5879457923152 0.5 0.6666666666666666
190 256 299.9999999999999 0.5 0.6666666666666666
190 257 300.0000000000001 0.5 0.6666666666666666
258 259 299.22916071497315 0.5 0.6666666666666666
192 260 300.0000000000001 0.5 0.6666666666666666
261 262 12.702903997755802 0.5 0.6666666666666666
194 263 299.9999999999999 0.5 0.6666666666666666
75 102 0.5880176723956508 0.5 0.6666666666666666
195 102 285.3027565166498 0.5 0.6666666666666666
195 76 300.44275774996925 0.5 0.6666666666666666
196 264 300.0000000000001 0.5 0.6666666666666666
196 265 299.99999999999994 0.5 0.6666666666666666
266 267 11.027104997345491 0.5 0.6666666666666666
197 265 324.12158631597663 0.5 0.6666666666666666
268 269 116.12542367257097 0.5 0.6666666666666666
270 271 128.05397009501576 0.5 0.6666666666666666
197 266 288.97289500265447 0.5 0.6666666666666666
200 266 254.43902000515865 0.5 0.6666666666666666
150 202 10.763752387996977 0.5 0.6666666666666666
200 202 290.4259729987647 0.5 0.6666666666666666
201 272 299.99999999999983 0.5 0.6666666666666666
201 273 299.9999999999999 0.5 0.6666666666666666
203 274 300 0.5 0.6666666666666666
203 275 300.0000000000001 0.5 0.6666666666666666
276 277 25.772523643872187 0.5 0.6666666666666666
155 209 6.598917650707736 0.5 0.6666666666666666
205 209 259.6217343178346 0.5 0.6666666666666666
278 279 222.8972450889039 0.5 0.6666666666666666
205 276 274.22747635612757 0.5 0.6666666666666666
208 276 264.2942791989096 0.5 0.6666666666666666
23 133 288.4005975012877 0.5 0.6666666666666666
210 133 155.73700855107487 0.5 0.6666666666666666
210 280 299.99999999999994 0.5 0.6666666666666666
212 281 299.9999999999999 0.5 0.6666666666666666
213 282 299.9999999999999 0.5 0.6666666666666666
158 224 1.4387279146845722 0.5 0.6666666666666666
213 224 262.86067710797954 0.5 0.6666666666666666
214 283 299.99999999999983 0.5 0.6666666666666666
214 284 300 0.5 0.6666666666666666
215 285 300.0000000000001 0.5 0.6666666666666666
286 287 6.055387744603255 0.5 0.6666666666666666
217 162 287.1716306786521 0.5 0.6666666666666666
216 162 293.0893898515605 0.5 0.6666666666666666
219 288 300.00000000000006 0.5 0.6666666666666666
216 286 293.9446122553967 0.5 0.6666666666666666
219 286 289.3370718239867 0.5 0.6666666666666666
221 289 299.9999999999999 0.5 0.6666666666666666
223 290 300 0.5 0.6666666666666666
291 292 4.9540947115141565 0.5 0.6666666666666666
123 167 283.07136985086885 0.5 0.6666666666666666
225 167 292.86136368245616 0.5 0.6666666666666666
226 293 300.0000000000001 0.5 0.6666666666666666
226 45 305.2225469074897 0.5 0.6666666666666666
294 295 261.9001972414285 0.5 0.6666666666666666
227 173 314.21194256468885 0.5 0.6666666666666666
228 296 300.0000000000001 0.5 0.6666666666666666
228 174 322.3828136086088 0.5 0.6666666666666666
297 298 17.241058921225324 0.5 0.6666666666666666
175 231 8.594680634805254 0.5 0.6666666666666666
230 231 254.20400352600478 0.5 0.6666666666666666
232 299 300.00000000000006 0.5 0.6666666666666666
230 297 282.7589410787747 0.5 0.6666666666666666
232 297 247.25325335838588 0.5 0.6666666666666666
300 301 108.10182082405545 1 1
302 303 164.64749859615648 1 1
304 305 113.92638602256157 1 1
238 306 399.9999999999999 1 1
69 307 300.0000000000001 0.5 0.6666666666666666
71 308 300.00000000000006 0.5 0.6666666666666666
73 309 300 0.5 0.6666666666666666
240 310 300 0.5 0.6666666666666666
240 311 300.00000000000017 0.5 0.6666666666666666
312 313 283.606336173818 0.5 0.6666666666666666
244 314 299.99999999999983 0.5 0.6666666666666666
34 50 300.0586613145833 1 1
244 50 316.07514451065356 0.5 0.6666666666666666
246 315 300.00000000000006 0.5 0.6666666666666666
247 316 300.00000000000017 0.5 0.6666666666666666
248 317 299.99999999999994 0.5 0.6666666666666666
318 319 40.20097705749151 0.5 0.6666666666666666
250 320 300 0.5 0.6666666666666666
198 270 171.9460299049843 0.5 0.6666666666666666
251 270 146.8994010958727 0.5 0.6666666666666666
198 321 179.04792988138627 0.5 0.6666666666666666
251 321 189.49544071492974 0.5 0.6666666666666666
253 322 300.00000000000017 0.5 0.6666666666666666
253 323 299.9999999999998 0.5 0.6666666666666666
256 324 299.9999999999999 0.5 0.6666666666666666
193 261 287.29709600224396 0.5 0.6666666666666666
256 261 138.26936316739332 0.5 0.6666666666666666
185 252 281.61186458375147 0.5 0.6666666666666666
257 252 70.44032280034548 0.5 0.6666666666666666
259 325 300.0000000000001 0.5 0.6666666666666666
259 326 300 0.5 0.6666666666666666
327 328 204.8002726545316 0.5 0.6666666666666666
262 329 299.9999999999998 0.5 0.6666666666666666
192 258 0.7708392850269286 0.5 0.6666666666666666
262 258 295.46494063988496 0.5 0.6666666666666666
263 330 299.9999999999999 0.5 0.6666666666666666
29 43 163.9399567238169 0.5 0.6666666666666666
263 43 122.28790354267407 0.5 0.6666666666666666
264 331 300.00000000000034 0.5 0.6666666666666666
332 333 11.066992940062812 0.5 0.6666666666666666
334 335 16.308207573660297 0.5 0.6666666666666666
264 332 288.93300705993715 0.5 0.6666666666666666
265 332 282.20829303110185 0.5 0.6666666666666666
336 337 22.485322626601825 0.5 0.6666666666666666
338 339 5.315678870354741 0.5 0.6666666666666666
184 249 220.7199490702068 0.5 0.6666666666666666
269 249 178.30640857408122 0.5 0.6666666666666666
340 341 138.69006934651594 0.5 0.6666666666666666
272 342 299.99999999999983 0.5 0.6666666666666666
343 344 13.206097913553396 0.5 0.6666666666666666
267 336 277.5146773733979 0.5 0.6666666666666666
345 336 220.02404087791277 0.5 0.6666666666666666
272 343 286.7939020864466 0.5 0.6666666666666666
273 343 288.4838692501024 0.5 0.6666666666666666
346 347 296.9286914312544 0.5 0.6666666666666666
275 348 300.00000000000034 0.5 0.6666666666666666
349 350 288.7290158609135 0.5 0.6666666666666666
279 351 300.0000000000001 0.5 0.6666666666666666
280 351 259.17690196577513 0.5 0.6666666666666666
352 353 286.34388131844975 0.5 0.6666666666666666
225 291 295.0459052884856 0.5 0.6666666666666666
281 291 156.47708103855913 0.5 0.6666666666666666
282 354 299.9999999999999 0.5 0.6666666666666666
283 355 299.99999999999983 0.5 0.6666666666666666
284 356 300 0.5 0.6666666666666666
285 357 300.0000000000002 0.5 0.6666666666666666
287 358 299.9999999999999 0.5 0.6666666666666666
359 260 302.1440454708 0.5 0.6666666666666666
289 360 299.9999999999999 0.5 0.6666666666666666
260 327 95.19972734546855 0.5 0.6666666666666666
289 327 218.21959926743244 0.5 0.6666666666666666
290 361 300 0.5 0.6666666666666666
290 362 300 0.5 0.6666666666666666
292 363 299.9999999999997 0.5 0.6666666666666666
364 352 6.771826890583741 0.5 0.6666666666666666
292 352 156.87024794986863 0.5 0.6666666666666666
27 40 94.82140084245754 0.5 0.6666666666666666
293 40 302.5731718044199 0.5 0.6666666666666666
39 59 6.312791736419251 0.5 0.6666666666666666
293 59 102.69044349306986 0.5 0.6666666666666666
295 365 300 0.5 0.6666666666666666
295 228 317.76496154361894 0.5 0.6666666666666666
296 366 300.0000000000001 0.5 0.6666666666666666
296 229 327.11676901598105 0.5 0.6666666666666666
367 368 0.8588699205328647 0.5 0.6666666666666666
299 369 300.00000000000006 0.5 0.6666666666666666
298 367 299.14113007946713 0.5 0.6666666666666666
299 367 239.03522103100707 0.5 0.6666666666666666
370 371 112.0718173272692 1 1
372 373 247.14044515428384 1 1
374 375 157.2237463873199 1 1
306 376 399.9999999999999 1 1
95 377 299.99999999999983 0.5 0.6666666666666666
97 378 300 0.5 0.6666666666666666
98 379 300 0.5 0.6666666666666666
380 381 29.34805058152825 0.5 0.6666666666666666
308 382 300.00000000000006 0.5 0.6666666666666666
383 384 15.783663938429365 0.5 0.6666666666666666
309 385 300 0.5 0.6666666666666666
309 386 299.99999999999983 0.5 0.6666666666666666
310 387 300.00000000000006 0.5 0.6666666666666666
311 388 300.00000000000017 0.5 0.6666666666666666
311 389 300 0.5 0.6666666666666666
390 391 273.6590236314073 0.5 0.6666666666666666
314 392 299.99999999999983 0.5 0.6666666666666666
314 393 300 0.5 0.6666666666666666
394 395 120.8622067101462 0.5 0.6666666666666666
315 396 299.9999999999999 0.5 0.6666666666666666
316 397 300.00000000000017 0.5 0.6666666666666666
398 399 12.607771483310342 0.5 0.6666666666666666
317 400 299.99999999999994 0.5 0.6666666666666666
48 68 124.28791105230016 1 1
317 68 280.41946843705364 0.5 0.6666666666666666
319 401 299.99999999999994 0.5 0.6666666666666666
319 402 300.0000000000001 0.5 0.6666666666666666
320 403 300 0.5 0.6666666666666666
321 268 4.826646446043072 0.5 0.6666666666666666
320 268 106.03432182752267 0.5 0.6666666666666666
404 405 8.02678301101037 0.5 0.6666666666666666
322 406 300.0000000000002 0.5 0.6666666666666666
323 407 299.9999999999998 0.5 0.6666666666666666
324 408 299.9999999999999 0.5 0.6666666666666666
324 409 299.99999999999983 0.5 0.6666666666666666
325 410 300.0000000000001 0.5 0.6666666666666666
411 412 22.378575512742938 0.5 0.6666666666666666
326 358 294.08004946770825 0.5 0.6666666666666666
325 411 277.621424487257 0.5 0.6666666666666666
326 411 277.37036923762537 0.5 0.6666666666666666
328 413 300.0000000000001 0.5 0.6666666666666666
288 359 26.645808494971472 0.5 0.6666666666666666
328 359 40.889541976519375 0.5 0.6666666666666666
329 414 299.9999999999998 0.5 0.6666666666666666
1 18 136.50229973647438 0.5 0.6666666666666666
330 18 175.14053066953537 0.5 0.6666666666666666
331 415 300.00000000000034 0.5 0.6666666666666666
331 416 300.00000000000006 0.5 0.6666666666666666
333 417 300 0.5 0.6666666666666666
333 416 300.2566773247818 0.5 0.6666666666666666
418 419 269.52534431308703 0.5 0.6666666666666666
420 421 41.28929380897327 0.5 0.6666666666666666
337 422 300.00000000000006 0.5 0.6666666666666666
335 418 30.47465568691315 0.5 0.6666666666666666
339 418 50.62181432581858 0.5 0.6666666666666666
339 265 328.2063720195311 0.5 0.6666666666666666
17 188 47.092942736044236 1 1
341 188 163.9960215359606 0.5 0.6666666666666666
341 423 300.0000000000002 0.5 0.6666666666666666
250 318 259.79902294250854 0.5 0.6666666666666666
342 318 219.59248770735277 0.5 0.6666666666666666
342 424 300 0.5 0.6666666666666666
337 420 258.7107061910267 0.5 0.6666666666666666
425 420 48.68742698706386 0.5 0.6666666666666666
273 345 2.513060296108481 0.5 0.6666666666666666
344 345 287.9539961271962 0.5 0.6666666666666666
426 427 28.79414738155379 0.5 0.6666666666666666
428 429 235.95828253419165 0.5 0.6666666666666666
348 430 300.00000000000034 0.5 0.6666666666666666
348 431 299.9999999999999 0.5 0.6666666666666666
432 433 1.6797326298459974 0.5 0.6666666666666666
434 435 265.4378154148381 0.5 0.6666666666666666
181 245 248.48529375477105 0.5 0.6666666666666666
351 245 77.09092175043507 0.5 0.6666666666666666
436 437 12.05673795253846 0.5 0.6666666666666666
354 438 299.9999999999999 0.5 0.6666666666666666
281 364 6.884291790966353 0.5 0.6666666666666666
354 364 238.07929688717547 0.5 0.6666666666666666
355 439 299.99999999999983 0.5 0.6666666666666666
440 441 141.52957681973422 0.5 0.6666666666666666
356 442 299.99999999999994 0.5 0.6666666666666666
356 443 299.9999999999999 0.5 0.6666666666666666
357 444 300.00000000000034 0.5 0.6666666666666666
357 442 313.18451411889737 0.5 0.6666666666666666
445 444 75.11704513825713 0.5 0.6666666666666666
140 191 66.09148707468096 0.5 0.6666666666666666
360 191 101.41812910608283 0.5 0.6666666666666666
361 446 300 0.5 0.6666666666666666
361 447 300 0.5 0.6666666666666666
362 448 300 0.5 0.6666666666666666
362 449 300.00000000000006 0.5 0.6666666666666666
450 451 0.41556315030611046 0.5 0.6666666666666666
452 453 265.36211309740645 0.5 0.6666666666666666
366 454 300.0000000000001 0.5 0.6666666666666666
366 297 331.7393786530116 0.5 0.6666666666666666
368 455 300 0.5 0.6666666666666666
369 456 299.99999999999983 0.5 0.6666666666666666
369 457 300 0.5 0.6666666666666666
371 458 400.0000000000004 1 1
459 460 89.66580598644039 1 1
461 462 184.84980833636115 1 1
376 463 399.9999999999999 1 1
464 465 54.77269031364867 0.5 0.6666666666666666
466 467 103.49456253507589 0.5 0.6666666666666666
377 468 299.99999999999983 0.5 0.6666666666666666
377 469 299.99999999999994 0.5 0.6666666666666666
470 471 250.67066680612248 0.5 0.6666666666666666
381 472 300.0000000000001 0.5 0.6666666666666666
473 474 112.87838251984239 0.5 0.6666666666666666
475 476 138.83668472525002 0.5 0.6666666666666666
477 478 150.0096739662144 0.5 0.6666666666666666
479 470 30.84367664573391 0.5 0.6666666666666666
384 470 139.56639138013188 0.5 0.6666666666666666
71 96 286.29735994494615 1 1
384 96 333.9811940241434 0.5 0.6666666666666666
51 239 293.74163166917066 0.5 0.6666666666666666
386 239 100.21685303672673 0.5 0.6666666666666666
51 72 95.38883391981936 1 1
386 72 295.21435596628504 0.5 0.6666666666666666
480 481 10.436201054746038 0.5 0.6666666666666666
388 482 300.00000000000017 0.5 0.6666666666666666
255 33 8.141599946567599 1 1
388 33 299.6338312403813 0.5 0.6666666666666666
389 483 300 0.5 0.6666666666666666
389 484 300.00000000000006 0.5 0.6666666666666666
485 486 9.267186170048339 0.5 0.6666666666666666
392 487 299.99999999999983 0.5 0.6666666666666666
488 489 30.52676165193732 0.5 0.6666666666666666
393 490 300 0.5 0.6666666666666666
491 492 14.267774669877042 0.5 0.6666666666666666
395 493 300.0000000000001 0.5 0.6666666666666666
494 495 261.10760248621983 0.5 0.6666666666666666
496 497 2.2056525432483944 0.5 0.6666666666666666
397 498 300.0000000000001 0.5 0.6666666666666666
499 500 1.9088425626850507 0.5 0.6666666666666666
399 501 299.99999999999994 0.5 0.6666666666666666
400 502 299.99999999999994 0.5 0.6666666666666666
397 496 297.7943474567517 0.5 0.6666666666666666
400 496 258.7327296620315 0.5 0.6666666666666666
503 504 207.95413977858925 0.5 0.6666666666666666
505 506 30.289380122046424 0.5 0.6666666666666666
507 508 79.57286644898008 0.5 0.6666666666666666
509 510 0.8061293243815862 0.5 0.6666666666666666
403 511 300 0.5 0.6666666666666666
405 512 300.00000000000034 0.5 0.6666666666666666
406 513 300.0000000000002 0.5 0.6666666666666666
514 515 7.624171936779055 0.5 0.6666666666666666
407 515 169.01299918607782 0.5 0.6666666666666666
407 516 299.99999999999994 0.5 0.6666666666666666
517 518 277.9471813732776 0.5 0.6666666666666666
519 512 51.18084876979569 0.5 0.6666666666666666
322 404 291.97321698898975 0.5 0.6666666666666666
409 404 55.11536203675063 0.5 0.6666666666666666
408 519 296.37995593128295 0.5 0.6666666666666666
409 519 306.8019434520488 0.5 0.6666666666666666
520 521 14.726431959116677 0.5 0.6666666666666666
522 523 11.390569322206858 0.5 0.6666666666666666
358 445 260.3601980091161 0.5 0.6666666666666666
412 445 264.71644805453997 0.5 0.6666666666666666
164 220 194.92657210903397 0.5 0.6666666666666666
413 220 88.51839466694801 0.5 0.6666666666666666
410 522 288.60943067779317 0.5 0.6666666666666666
414 522 291.56335936227543 0.5 0.6666666666666666
408 517 22.052818626722516 0.5 0.6666666666666666
414 517 157.00045147859012 0.5 0.6666666666666666
415 524 300.00000000000034 0.5 0.6666666666666666
415 525 300.0000000000001 0.5 0.6666666666666666
416 526 300.00000000000006 0.5 0.6666666666666666
416 332 300.15790512000797 0.5 0.6666666666666666
417 527 300 0.5 0.6666666666666666
265 334 283.69179242633965 0.5 0.6666666666666666
417 334 264.44007802573327 0.5 0.6666666666666666
528 529 288.1609282203649 0.5 0.6666666666666666
530 531 54.93780071809645 0.5 0.6666666666666666
421 532 300 0.5 0.6666666666666666
419 528 11.839071779635038 0.5 0.6666666666666666
422 528 72.966183354637 0.5 0.6666666666666666
267 338 294.6843211296453 0.5 0.6666666666666666
422 338 283.8123785781515 0.5 0.6666666666666666
533 505 16.067847103882546 0.5 0.6666666666666666
424 505 84.6199670426247 0.5 0.6666666666666666
424 343 312.7186287312978 0.5 0.6666666666666666
534 535 293.1325629887811 0.5 0.6666666666666666
277 349 11.270984139086298 0.5 0.6666666666666666
429 349 52.898929302445104 0.5 0.6666666666666666
355 440 158.4704231802658 0.5 0.6666666666666666
430 440 228.58158481482852 0.5 0.6666666666666666
536 537 207.70771128594762 0.5 0.6666666666666666
431 538 299.9999999999999 0.5 0.6666666666666666
539 540 36.775918614604 0.5 0.6666666666666666
315 394 179.13779328985385 0.5 0.6666666666666666
433 394 304.17058320436075 0.5 0.6666666666666666
396 494 38.892397513780104 0.5 0.6666666666666666
433 494 242.88968216371623 0.5 0.6666666666666666
427 534 6.86743701121891 0.5 0.6666666666666666
435 534 70.12080421858745 0.5 0.6666666666666666
347 428 64.04171746580823 0.5 0.6666666666666666
435 428 303.40527597791913 0.5 0.6666666666666666
437 541 299.9999999999999 0.5 0.6666666666666666
363 450 299.5844368496936 0.5 0.6666666666666666
437 450 181.8600778133382 0.5 0.6666666666666666
542 543 15.078559277598329 0.5 0.6666666666666666
439 544 299.99999999999983 0.5 0.6666666666666666
439 545 300 0.5 0.6666666666666666
546 547 134.9812488489188 0.5 0.6666666666666666
430 536 92.29228871405232 0.5 0.6666666666666666
441 536 201.44482855206488 0.5 0.6666666666666666
442 548 299.9999999999999 0.5 0.6666666666666666
442 549 300.00000000000017 0.5 0.6666666666666666
443 550 299.9999999999999 0.5 0.6666666666666666
443 549 314.25704640866127 0.5 0.6666666666666666
444 411 285.22542663135664 0.5 0.6666666666666666
446 551 300 0.5 0.6666666666666666
446 552 300 0.5 0.6666666666666666
447 553 300 0.5 0.6666666666666666
447 362 301.16418746373375 0.5 0.6666666666666666
448 554 300.00000000000006 0.5 0.6666666666666666
555 556 11.166650675113084 0.5 0.6666666666666666
557 558 297.04636545811593 0.5 0.6666666666666666
448 555 288.8333493248869 0.5 0.6666666666666666
449 555 287.2391403337874 0.5 0.6666666666666666
559 552 28.382497669670954 0.5 0.6666666666666666
453 560 300 0.5 0.6666666666666666
561 562 66.27019587633148 0.5 0.6666666666666666
454 563 300.0000000000001 0.5 0.6666666666666666
454 560 328.4240915663479 0.5 0.6666666666666666
564 565 88.72246907818929 0.5 0.6666666666666666
566 563 126.96566741556123 0.5 0.6666666666666666
456 567 300 0.5 0.6666666666666666
457 15 337.4685018315448 0.5 0.6666666666666666
458 568 400.0000000000004 1 1
569 570 197.9805907809671 1 1
571 572 62.64929399638161 1 1
462 573 400.00000000000045 1 1
463 574 399.9999999999999 1 1
465 575 300.00000000000017 0.5 0.6666666666666666
467 576 299.9999999999995 0.5 0.6666666666666666
577 578 10.060347836537696 0.5 0.6666666666666666
468 579 300.0000000000001 0.5 0.6666666666666666
469 580 299.99999999999994 0.5 0.6666666666666666
469 581 300.0000000000001 0.5 0.6666666666666666
582 583 252.988012041175 0.5 0.6666666666666666
472 584 300.0000000000001 0.5 0.6666666666666666
585 586 245.68855384381328 0.5 0.6666666666666666
474 587 300 0.5 0.6666666666666666
588 589 22.580541324684116 0.5 0.6666666666666666
455 590 183.2741384773137 0.5 0.6666666666666666
476 590 69.168381903187 0.5 0.6666666666666666
471 582 47.011987958825024 0.5 0.6666666666666666
478 582 176.2330448434693 0.5 0.6666666666666666
308 383 284.21633606157064 0.5 0.6666666666666666
478 383 297.6249685925588 0.5 0.6666666666666666
271 340 161.30993065348412 0.5 0.6666666666666666
482 340 314.1712962235394 0.5 0.6666666666666666
482 24 300.291164738973 0.5 0.6666666666666666
402 507 220.42713355102003 0.5 0.6666666666666666
483 507 293.24731539487635 0.5 0.6666666666666666
402 509 299.19387067561837 0.5 0.6666666666666666
483 509 237.04974011375484 0.5 0.6666666666666666
135 183 292.4068247531803 0.5 0.6666666666666666
484 183 215.67101738107942 0.5 0.6666666666666666
486 591 300 0.5 0.6666666666666666
486 592 299.99999999999983 0.5 0.6666666666666666
487 593 299.99999999999983 0.5 0.6666666666666666
487 98 303.2493260296112 0.5 0.6666666666666666
489 594 300.00000000000006 0.5 0.6666666666666666
489 595 300.0000000000001 0.5 0.6666666666666666
490 596 299.99999999999955 0.5 0.6666666666666666
490 595 304.7044124051028 0.5 0.6666666666666666
597 598 0.6078829897463796 0.5 0.6666666666666666
350 434 34.56218458516185 0.5 0.6666666666666666
493 434 290.5207722184867 0.5 0.6666666666666666
350 432 298.3202673701538 0.5 0.6666666666666666
493 432 77.34606095820128 0.5 0.6666666666666666
495 599 299.9999999999999 0.5 0.6666666666666666
206 278 77.1027549110962 0.5 0.6666666666666666
495 278 257.1105254235364 0.5 0.6666666666666666
600 601 287.9103240652894 0.5 0.6666666666666666
498 602 300.0000000000001 0.5 0.6666666666666666
316 398 287.39222851668956 0.5 0.6666666666666666
498 398 293.9898254897763 0.5 0.6666666666666666
500 603 299.99999999999994 0.5 0.6666666666666666
501 245 306.4049185085281 0.5 0.6666666666666666
604 605 63.27393138629048 0.5 0.6666666666666666
344 425 143.0817473929541 0.5 0.6666666666666666
506 425 292.0276651234706 0.5 0.6666666666666666
387 480 289.563798945254 0.5 0.6666666666666666
508 480 252.9569022147331 0.5 0.6666666666666666
510 484 307.5034616856352 0.5 0.6666666666666666
108 148 177.77381215247362 0.5 0.6666666666666666
511 148 190.53269141549063 0.5 0.6666666666666666
108 146 178.2855714285478 0.5 0.6666666666666666
511 146 161.06746201157665 0.5 0.6666666666666666
512 606 300.00000000000034 0.5 0.6666666666666666
607 608 3.5088181435626318 0.5 0.6666666666666666
515 485 277.6694428445288 0.5 0.6666666666666666
513 485 161.81149519845772 0.5 0.6666666666666666
516 609 299.99999999999994 0.5 0.6666666666666666
313 390 26.340976368592717 0.5 0.6666666666666666
516 390 161.18192999264818 0.5 0.6666666666666666
610 611 292.5128709094521 0.5 0.6666666666666666
518 606 340.06964238359285 0.5 0.6666666666666666
521 612 300.0000000000001 0.5 0.6666666666666666
521 613 300 0.5 0.6666666666666666
518 610 7.487129090548039 0.5 0.6666666666666666
523 610 154.04176923421278 0.5 0.6666666666666666
523 613 295.22732681973946 0.5 0.6666666666666666
614 615 295.492496476671 0.5 0.6666666666666666
438 542 284.9214407224016 0.5 0.6666666666666666
524 542 244.22734025309694 0.5 0.6666666666666666
525 616 300.0000000000001 0.5 0.6666666666666666
525 617 300.00000000000017 0.5 0.6666666666666666
526 618 300.0000000000003 0.5 0.6666666666666666
526 417 300.5133548087496 0.5 0.6666666666666666
419 530 245.0621992819033 0.5 0.6666666666666666
527 530 0.37954179166770724 0.5 0.6666666666666666
529 619 299.99999999999994 0.5 0.6666666666666666
529 620 300.00000000000017 0.5 0.6666666666666666
621 622 54.18410098738651 0.5 0.6666666666666666
531 417 304.00135100254874 0.5 0.6666666666666666
401 503 92.0458602214107 0.5 0.6666666666666666
532 503 260.4473056070629 0.5 0.6666666666666666
401 533 253.64277277407106 0.5 0.6666666666666666
532 533 73.25484603829382 0.5 0.6666666666666666
395 491 285.732225330123 0.5 0.6666666666666666
535 491 247.85055199137233 0.5 0.6666666666666666
535 623 300.00000000000006 0.5 0.6666666666666666
537 624 299.99999999999994 0.5 0.6666666666666666
441 546 165.0187511510813 0.5 0.6666666666666666
537 546 156.44656606760222 0.5 0.6666666666666666
538 625 299.9999999999999 0.5 0.6666666666666666
538 624 319.85200815525366 0.5 0.6666666666666666
274 346 3.071308568745653 0.5 0.6666666666666666
540 346 293.3566164473576 0.5 0.6666666666666666
626 627 268.700763883629 0.5 0.6666666666666666
451 559 289.83985724512775 0.5 0.6666666666666666
541 559 160.52385027261374 0.5 0.6666666666666666
628 629 8.092878945110836 0.5 0.6666666666666666
353 436 287.9432620474614 0.5 0.6666666666666666
543 436 214.06804876782394 0.5 0.6666666666666666
544 630 299.99999999999983 0.5 0.6666666666666666
544 631 300 0.5 0.6666666666666666
632 633 57.75003337489932 0.5 0.6666666666666666
634 635 128.52296359901305 0.5 0.6666666666666666
547 636 299.99999999999994 0.5 0.6666666666666666
548 637 299.9999999999999 0.5 0.6666666666666666
548 444 317.57945179050756 0.5 0.6666666666666666
549 638 300.00000000000017 0.5 0.6666666666666666
549 639 300 0.5 0.6666666666666666
545 632 242.24996662510065 0.5 0.6666666666666666
550 632 254.2657809579306 0.5 0.6666666666666666
550 638 328.51412671436543 0.5 0.6666666666666666
640 641 293.2731694680116 0.5 0.6666666666666666
541 626 31.299236116370892 0.5 0.6666666666666666
552 626 158.56404512054263 0.5 0.6666666666666666
552 642 300 0.5 0.6666666666666666
553 643 300 0.5 0.6666666666666666
553 448 302.3283756233327 0.5 0.6666666666666666
554 644 300.00000000000006 0.5 0.6666666666666666
554 643 303.4925644707888 0.5 0.6666666666666666
556 645 300 0.5 0.6666666666666666
449 557 2.953634541884127 0.5 0.6666666666666666
556 557 286.6881675935988 0.5 0.6666666666666666
558 646 300.00000000000006 0.5 0.6666666666666666
558 645 273.4501625126912 0.5 0.6666666666666666
560 647 299.99999999999983 0.5 0.6666666666666666
562 648 300.00000000000017 0.5 0.6666666666666666
563 649 300.0000000000001 0.5 0.6666666666666666
382 477 149.99032603378564 0.5 0.6666666666666666
565 477 198.2559483980137 0.5 0.6666666666666666
382 475 161.16331527475003 0.5 0.6666666666666666
565 475 102.79140244254023 0.5 0.6666666666666666
567 650 300 0.5 0.6666666666666666
567 457 307.07986247934576 0.5 0.6666666666666666
568 651 400.0000000000004 1 1
568 652 400.0000000000007 1 1
653 654 108.48507379377791 1 1
655 656 310.41678304198086 1 1
657 658 113.46755870534125 1 1
573 659 400.00000000000045 1 1
574 660 400.00000000000017 1 1
233 661 300 0.5 0.6666666666666666
662 663 48.233032970825725 0.5 0.6666666666666666
575 664 300.00000000000017 0.5 0.6666666666666666
665 666 80.02829755436646 0.5 0.6666666666666666
576 667 300.0000000000001 0.5 0.6666666666666666
578 668 299.9999999999999 0.5 0.6666666666666666
578 669 300.00000000000017 0.5 0.6666666666666666
307 380 270.6519494184719 0.5 0.6666666666666666
579 380 80.99858901778151 0.5 0.6666666666666666
472 585 54.31144615618671 0.5 0.6666666666666666
579 585 322.5678495540865 0.5 0.6666666666666666
580 670 299.99999999999994 0.5 0.6666666666666666
581 669 316.46459557344133 0.5 0.6666666666666666
581 671 299.99999999999966 0.5 0.6666666666666666
583 672 300 0.5 0.6666666666666666
673 674 233.57592225413782 0.5 0.6666666666666666
675 676 22.93657260073562 0.5 0.6666666666666666
468 577 289.93965216346214 0.5 0.6666666666666666
586 577 70.01074767807704 0.5 0.6666666666666666
587 677 300 0.5 0.6666666666666666
678 679 16.31994546525642 0.5 0.6666666666666666
680 681 101.15459747499168 0.5 0.6666666666666666
591 682 300 0.5 0.6666666666666666
683 684 43.63633345320232 0.5 0.6666666666666666
592 685 300.00000000000006 0.5 0.6666666666666666
593 686 299.99999999999983 0.5 0.6666666666666666
592 683 256.3636665467975 0.5 0.6666666666666666
594 683 279.6708453220045 0.5 0.6666666666666666
687 688 288.31774104968974 0.5 0.6666666666666666
596 689 299.99999999999915 0.5 0.6666666666666666
690 691 4.038835608259003 0.5 0.6666666666666666
598 692 300.0000000000001 0.5 0.6666666666666666
154 207 199.3691604510138 0.5 0.6666666666666666
599 207 51.236070522444656 0.5 0.6666666666666666
130 464 245.22730968635153 0.5 0.6666666666666666
601 464 331.4959016969996 0.5 0.6666666666666666
601 693 299.99999999999983 0.5 0.6666666666666666
602 694 300.00000000000034 0.5 0.6666666666666666
399 499 298.09115743731485 0.5 0.6666666666666666
602 499 287.40432469646066 0.5 0.6666666666666666
603 695 299.99999999999994 0.5 0.6666666666666666
603 696 299.9999999999999 0.5 0.6666666666666666
605 697 299.99999999999994 0.5 0.6666666666666666
605 698 299.99999999999983 0.5 0.6666666666666666
699 700 5.0152307063245685 0.5 0.6666666666666666
606 701 299.99999999999983 0.5 0.6666666666666666
608 702 300.00000000000017 0.5 0.6666666666666666
608 701 285.91848040966704 0.5 0.6666666666666666
187 254 47.807360331416874 0.5 0.6666666666666666
609 254 297.786832274142 0.5 0.6666666666666666
609 703 299.99999999999994 0.5 0.6666666666666666
611 704 300.0000000000001 0.5 0.6666666666666666
705 706 110.01191712235612 0.5 0.6666666666666666
612 707 300 0.5 0.6666666666666666
613 708 300 0.5 0.6666666666666666
709 710 280.22741273968177 0.5 0.6666666666666666
543 628 291.90712105488905 0.5 0.6666666666666666
615 628 262.7482600095421 0.5 0.6666666666666666
616 711 300.0000000000001 0.5 0.6666666666666666
616 526 331.9532661758772 0.5 0.6666666666666666
617 712 300.00000000000017 0.5 0.6666666666666666
524 614 4.507503523329324 0.5 0.6666666666666666
617 614 292.3742755584529 0.5 0.6666666666666666
531 621 245.8158990126135 0.5 0.6666666666666666
618 621 1.0363845541157115 0.5 0.6666666666666666
504 604 236.72606861370946 0.5 0.6666666666666666
619 604 306.2039512175774 0.5 0.6666666666666666
619 713 299.9999999999999 0.5 0.6666666666666666
620 714 300.0000000000004 0.5 0.6666666666666666
620 713 313.4291091362992 0.5 0.6666666666666666
622 711 293.775723644681 0.5 0.6666666666666666
622 526 304.5769410412025 0.5 0.6666666666666666
715 716 14.15104489887671 0.5 0.6666666666666666
492 597 299.3921170102537 0.5 0.6666666666666666
623 597 224.31315480507038 0.5 0.6666666666666666
624 717 300.00000000000006 0.5 0.6666666666666666
547 634 171.47703640098703 0.5 0.6666666666666666
624 634 84.34087253171897 0.5 0.6666666666666666
623 718 274.3672890579026 0.5 0.6666666666666666
625 718 275.4689800003862 0.5 0.6666666666666666
625 719 299.99999999999994 0.5 0.6666666666666666
627 720 299.9999999999999 0.5 0.6666666666666666
721 722 111.34658838882713 0.5 0.6666666666666666
627 721 188.6534116111728 0.5 0.6666666666666666
629 721 303.051301098068 0.5 0.6666666666666666
615 709 19.772587260318577 0.5 0.6666666666666666
629 709 263.5028203737421 0.5 0.6666666666666666
630 723 299.9999999999993 0.5 0.6666666666666666
630 724 300 0.5 0.6666666666666666
725 726 295.2934934724068 0.5 0.6666666666666666
727 728 16.41509795141898 0.5 0.6666666666666666
635 729 300.0000000000001 0.5 0.6666666666666666
635 730 299.99999999999994 0.5 0.6666666666666666
636 731 299.99999999999994 0.5 0.6666666666666666
636 732 300 0.5 0.6666666666666666
410 733 25.586442684911116 0.5 0.6666666666666666
637 733 221.4467742834321 0.5 0.6666666666666666
734 727 280.9298607822626 0.5 0.6666666666666666
638 727 225.28026691738037 0.5 0.6666666666666666
638 735 300 0.5 0.6666666666666666
639 736 300 0.5 0.6666666666666666
642 737 300 0.5 0.6666666666666666
551 640 6.726830531988414 0.5 0.6666666666666666
642 640 295.92086353754013 0.5 0.6666666666666666
643 738 300 0.5 0.6666666666666666
644 739 300.00000000000006 0.5 0.6666666666666666
644 740 300.0000000000001 0.5 0.6666666666666666
645 741 300 0.5 0.6666666666666666
646 742 300.00000000000006 0.5 0.6666666666666666
646 123 303.07920028244047 0.5 0.6666666666666666
647 743 300 0.5 0.6666666666666666
744 563 210.8172108503735 0.5 0.6666666666666666
648 745 300.00000000000017 0.5 0.6666666666666666
583 673 66.42407774586226 0.5 0.6666666666666666
649 673 32.923977068342126 0.5 0.6666666666666666
16 22 269.3532619569597 1 1
650 22 126.83275530681556 0.5 0.6666666666666666
651 746 400.0000000000004 1 1
652 747 400.0000000000007 1 1
654 748 400.0000000000007 1 1
656 749 400.00000000000085 1 1
750 751 202.29556131998368 1 1
752 753 359.58680120762995 1 1
660 754 400 1 1
755 756 12.667391863098908 0.5 0.6666666666666666
303 751 303.36762854425615 0.5 0.6666666666666666
757 665 8.880091954181932 0.5 0.6666666666666666
305 665 194.87568142195798 0.5 0.6666666666666666
758 759 131.55786306472928 0.5 0.6666666666666666
661 760 300.0000000000003 0.5 0.6666666666666666
761 762 1.5240925837341353 0.5 0.6666666666666666
664 763 300.00000000000017 0.5 0.6666666666666666
764 765 282.07031180649443 0.5 0.6666666666666666
584 675 277.06342739926447 0.5 0.6666666666666666
666 675 202.2476838605712 0.5 0.6666666666666666
666 766 299.99999999999994 0.5 0.6666666666666666
589 680 198.84540252500827 0.5 0.6666666666666666
667 680 270.9508938507966 0.5 0.6666666666666666
375 461 215.1501916636392 1 1
668 461 280.0581932698562 0.5 0.6666666666666666
767 768 213.32363327598807 0.5 0.6666666666666666
670 769 299.99999999999994 0.5 0.6666666666666666
670 770 300.00000000000006 0.5 0.6666666666666666
671 770 303.9595399649292 0.5 0.6666666666666666
671 768 328.14382243026165 0.5 0.6666666666666666
647 744 121.15994711517195 0.5 0.6666666666666666
672 744 83.35462420451233 0.5 0.6666666666666666
590 564 28.00339244449701 0.5 0.6666666666666666
674 564 132.1631137060161 0.5 0.6666666666666666
455 566 213.32342546737823 0.5 0.6666666666666666
674 566 270.38405621032854 0.5 0.6666666666666666
305 374 242.77625361268028 1 1
676 374 105.28837099032812 0.5 0.6666666666666666
49 70 298.46074268783474 1 1
677 70 108.04200595178344 0.5 0.6666666666666666
677 771 300.00000000000006 0.5 0.6666666666666666
576 757 211.0916104914514 0.5 0.6666666666666666
679 757 281.51452871319077 0.5 0.6666666666666666
681 771 306.32345718035094 0.5 0.6666666666666666
681 587 320.25115380358494 0.5 0.6666666666666666
772 773 22.141628776063346 0.5 0.6666666666666666
774 775 8.39975799500039 0.5 0.6666666666666666
684 776 299.99999999999983 0.5 0.6666666666666666
684 594 281.40699231857633 0.5 0.6666666666666666
685 777 300.00000000000006 0.5 0.6666666666666666
391 514 5.439199048643788 0.5 0.6666666666666666
685 514 291.28545708119253 0.5 0.6666666666666666
686 778 299.99999999999983 0.5 0.6666666666666666
688 779 300.00000000000057 0.5 0.6666666666666666
689 780 299.99999999999915 0.5 0.6666666666666666
691 781 300.00000000000006 0.5 0.6666666666666666
718 715 11.481666043220695 0.5 0.6666666666666666
691 715 202.63074239203968 0.5 0.6666666666666666
782 783 2.26533278034716 0.5 0.6666666666666666
692 784 299.99999999999983 0.5 0.6666666666666666
664 764 17.92968819350549 0.5 0.6666666666666666
693 764 293.60092252312177 0.5 0.6666666666666666
785 786 140.5370166365577 0.5 0.6666666666666666
787 788 252.58675366839105 0.5 0.6666666666666666
695 783 323.48131088401306 0.5 0.6666666666666666
695 784 322.05639858557817 0.5 0.6666666666666666
696 395 311.7692654470518 0.5 0.6666666666666666
696 789 299.99999999999983 0.5 0.6666666666666666
790 791 58.73214342629637 0.5 0.6666666666666666
697 792 300.0000000000002 0.5 0.6666666666666666
698 793 299.99999999999983 0.5 0.6666666666666666
700 794 300.00000000000034 0.5 0.6666666666666666
700 795 299.9999999999999 0.5 0.6666666666666666
701 796 299.99999999999983 0.5 0.6666666666666666
512 607 296.4911818564375 0.5 0.6666666666666666
701 607 286.00106773597054 0.5 0.6666666666666666
682 797 12.590818005195871 0.5 0.6666666666666666
702 797 145.9317939785418 0.5 0.6666666666666666
702 796 271.83698640469544 0.5 0.6666666666666666
703 136 332.57554853872097 0.5 0.6666666666666666
798 799 295.0360663365105 0.5 0.6666666666666666
800 794 192.8772023896862 0.5 0.6666666666666666
801 802 102.41680639863492 0.5 0.6666666666666666
704 798 4.963933663489627 0.5 0.6666666666666666
707 798 167.44420286048444 0.5 0.6666666666666666
803 804 6.060511405108898 0.5 0.6666666666666666
606 699 294.9847692936758 0.5 0.6666666666666666
708 699 193.21203206848338 0.5 0.6666666666666666
704 800 132.2102549796505 0.5 0.6666666666666666
708 800 301.8659159609967 0.5 0.6666666666666666
805 806 271.99049070113 0.5 0.6666666666666666
807 808 34.27854883355594 0.5 0.6666666666666666
712 809 300.00000000000017 0.5 0.6666666666666666
810 811 191.19272544919326 0.5 0.6666666666666666
812 807 168.39730870650865 0.5 0.6666666666666666
714 807 291.4286401983592 0.5 0.6666666666666666
813 814 38.43166258451942 0.5 0.6666666666666666
347 426 271.2058526184463 0.5 0.6666666666666666
719 426 281.05573412347746 0.5 0.6666666666666666
719 815 300 0.5 0.6666666666666666
816 805 17.34975623638642 0.5 0.6666666666666666
722 805 170.81180558206475 0.5 0.6666666666666666
722 817 300 0.5 0.6666666666666666
723 818 299.99999999999886 0.5 0.6666666666666666
723 819 300 0.5 0.6666666666666666
724 820 300 0.5 0.6666666666666666
631 725 4.706506527593231 0.5 0.6666666666666666
724 725 287.7310376104512 0.5 0.6666666666666666
821 822 294.8356602570117 0.5 0.6666666666666666
726 823 299.99999999999983 0.5 0.6666666666666666
824 825 282.5535600558483 0.5 0.6666666666666666
716 813 261.56833741548064 0.5 0.6666666666666666
729 813 149.86293132181672 0.5 0.6666666666666666
826 827 296.44934417442573 0.5 0.6666666666666666
730 828 299.99999999999994 0.5 0.6666666666666666
730 636 300.8406002071684 0.5 0.6666666666666666
731 829 299.99999999999994 0.5 0.6666666666666666
732 439 308.22290942619003 0.5 0.6666666666666666
732 441 303.2780281776061 0.5 0.6666666666666666
830 831 2.3246514917256427 0.5 0.6666666666666666
735 639 304.68987538582337 0.5 0.6666666666666666
733 520 259.68712535597234 0.5 0.6666666666666666
736 520 197.3946097815831 0.5 0.6666666666666666
738 832 300 0.5 0.6666666666666666
738 833 300.00000000000017 0.5 0.6666666666666666
739 834 299.99999999999994 0.5 0.6666666666666666
739 832 305.82094419785057 0.5 0.6666666666666666
835 836 275.06074195713416 0.5 0.6666666666666666
740 837 300.00000000000006 0.5 0.6666666666666666
838 839 10.519861247617303 0.5 0.6666666666666666
741 840 300.00000000000006 0.5 0.6666666666666666
91 841 5.153780749617653 0.5 0.6666666666666666
742 841 288.1543419728537 0.5 0.6666666666666666
741 838 289.48013875238274 0.5 0.6666666666666666
742 838 247.4114405454559 0.5 0.6666666666666666
743 842 300 0.5 0.6666666666666666
743 843 299.99999999999994 0.5 0.6666666666666666
745 844 300.0000000000004 0.5 0.6666666666666666
746 845 400.00000000000017 1 1
747 846 400.00000000000085 1 1
748 847 400.0000000000008 1 1
749 848 400.000000000001 1 1
751 849 400.00000000000136 1 1
850 851 251.05648260536586 1 1
754 852 400 1 1
373 853 300.0000000000001 0.5 0.6666666666666666
756 854 299.9999999999998 0.5 0.6666666666666666
756 855 299.99999999999983 0.5 0.6666666666666666
856 857 114.772006218005 0.5 0.6666666666666666
301 755 287.33260813690083 0.5 0.6666666666666666
760 755 98.82293559092656 0.5 0.6666666666666666
233 300 291.8981791759453 1 1
760 300 290.65589836191856 0.5 0.6666666666666666
762 858 299.9999999999999 0.5 0.6666666666666666
763 859 300.00000000000017 0.5 0.6666666666666666
860 861 269.58993536895883 0.5 0.6666666666666666
693 785 159.46298336344225 0.5 0.6666666666666666
765 785 192.4334937638768 0.5 0.6666666666666666
766 862 299.99999999999994 0.5 0.6666666666666666
589 678 283.68005453474393 0.5 0.6666666666666666
766 678 97.0631172039827 0.5 0.6666666666666666
768 863 300.00000000000017 0.5 0.6666666666666666
661 758 168.4421369352709 0.5 0.6666666666666666
769 758 66.86731119720852 0.5 0.6666666666666666
770 864 300.00000000000006 0.5 0.6666666666666666
770 865 299.99999999999966 0.5 0.6666666666666666
771 866 300.00000000000006 0.5 0.6666666666666666
867 868 297.57839659256916 0.5 0.6666666666666666
775 869 299.99999999999994 0.5 0.6666666666666666
775 870 299.99999999999994 0.5 0.6666666666666666
776 871 299.99999999999983 0.5 0.6666666666666666
776 872 299.99999999999994 0.5 0.6666666666666666
777 873 300.00000000000006 0.5 0.6666666666666666
393 488 269.47323834806264 0.5 0.6666666666666666
777 488 296.48057524248827 0.5 0.6666666666666666
779 874 300.00000000000057 0.5 0.6666666666666666
875 876 65.5952613595859 0.5 0.6666666666666666
780 877 299.99999999999915 0.5 0.6666666666666666
780 874 318.8176522330317 0.5 0.6666666666666666
781 878 300.00000000000006 0.5 0.6666666666666666
781 879 300.0000000000002 0.5 0.6666666666666666
783 880 300.0000000000001 0.5 0.6666666666666666
784 696 318.60716462282727 0.5 0.6666666666666666
786 498 316.5341836902178 0.5 0.6666666666666666
497 600 12.089675934710757 0.5 0.6666666666666666
786 600 299.51253789887164 0.5 0.6666666666666666
881 880 260.50134570645616 0.5 0.6666666666666666
788 882 300.0000000000002 0.5 0.6666666666666666
789 501 302.6186126445698 0.5 0.6666666666666666
789 499 302.7662109030746 0.5 0.6666666666666666
883 884 67.44989600429403 0.5 0.6666666666666666
885 886 220.68385291170745 0.5 0.6666666666666666
713 810 108.80727455080687 0.5 0.6666666666666666
792 810 43.61508489849621 0.5 0.6666666666666666
793 887 299.99999999999983 0.5 0.6666666666666666
793 888 300 0.5 0.6666666666666666
794 889 300.00000000000034 0.5 0.6666666666666666
795 890 299.9999999999999 0.5 0.6666666666666666
891 892 14.417252676442727 0.5 0.6666666666666666
797 772 265.26755321874083 0.5 0.6666666666666666
796 772 139.3278056785051 0.5 0.6666666666666666
799 893 300.0000000000001 0.5 0.6666666666666666
707 803 293.93948859489115 0.5 0.6666666666666666
799 803 186.83037934958588 0.5 0.6666666666666666
894 895 17.980451061651056 0.5 0.6666666666666666
804 896 300.00000000000006 0.5 0.6666666666666666
806 897 300.00000000000034 0.5 0.6666666666666666
806 898 300.00000000000006 0.5 0.6666666666666666
808 899 299.9999999999999 0.5 0.6666666666666666
809 898 303.5490769552712 0.5 0.6666666666666666
710 816 10.659753062483937 0.5 0.6666666666666666
809 816 277.2927562614536 0.5 0.6666666666666666
900 899 180.73342585503445 0.5 0.6666666666666666
901 902 238.94992532913943 0.5 0.6666666666666666
903 904 22.439570509637335 0.5 0.6666666666666666
729 826 3.5506558255744394 0.5 0.6666666666666666
814 826 143.9982441162983 0.5 0.6666666666666666
431 539 263.224081385396 0.5 0.6666666666666666
815 539 285.4616137707403 0.5 0.6666666666666666
818 905 299.99999999999886 0.5 0.6666666666666666
819 906 300 0.5 0.6666666666666666
907 908 2.807691552999692 0.5 0.6666666666666666
726 821 5.164339742988309 0.5 0.6666666666666666
820 821 275.6303181754288 0.5 0.6666666666666666
822 909 300 0.5 0.6666666666666666
822 910 300 0.5 0.6666666666666666
633 734 2.655041266318423 0.5 0.6666666666666666
823 734 56.60139974213379 0.5 0.6666666666666666
823 910 311.3088044227727 0.5 0.6666666666666666
825 911 299.99999999999994 0.5 0.6666666666666666
912 913 190.44253667173385 0.5 0.6666666666666666
914 915 288.6618475294644 0.5 0.6666666666666666
814 903 277.5604294903627 0.5 0.6666666666666666
827 903 76.82243296469305 0.5 0.6666666666666666
916 917 298.26200180589854 0.5 0.6666666666666666
828 731 301.6812004911834 0.5 0.6666666666666666
829 918 299.9999999999995 0.5 0.6666666666666666
831 736 309.379803782915 0.5 0.6666666666666666
832 919 300 0.5 0.6666666666666666
833 920 300.00000000000017 0.5 0.6666666666666666
833 921 299.99999999999994 0.5 0.6666666666666666
922 923 44.17770742766144 0.5 0.6666666666666666
834 924 300.00000000000006 0.5 0.6666666666666666
925 926 289.4660298251136 0.5 0.6666666666666666
837 555 320.57596742132506 0.5 0.6666666666666666
837 927 299.9999999999999 0.5 0.6666666666666666
841 125 234.56345346132147 0.5 0.6666666666666666
839 125 279.2655959455336 0.5 0.6666666666666666
928 929 263.92119288923533 0.5 0.6666666666666666
840 927 297.2466741087813 0.5 0.6666666666666666
930 931 14.637614585308008 0.5 0.6666666666666666
842 932 300.00000000000017 0.5 0.6666666666666666
843 933 299.99999999999994 0.5 0.6666666666666666
843 932 297.6869481933533 0.5 0.6666666666666666
834 922 255.82229257233848 0.5 0.6666666666666666
844 922 219.22107772159674 0.5 0.6666666666666666
845 934 400.00000000000017 1 1
846 935 400.0000000000004 1 1
847 936 400.000000000001 1 1
937 938 113.25381715884483 1 1
178 236 192.30654709099235 1 1
849 236 411.15601959755395 1 1
939 940 215.35924035125578 1 1
851 941 400.00000000000074 1 1
852 942 399.9999999999998 1 1
458 943 300.0000000000002 0.5 0.6666666666666666
460 944 300.00000000000034 0.5 0.6666666666666666
462 945 299.99999999999966 0.5 0.6666666666666666
853 946 300.0000000000001 0.5 0.6666666666666666
947 939 37.514531870347255 1 1
854 939 208.84110030788995 0.5 0.6666666666666666
855 948 299.99999999999983 0.5 0.6666666666666666
301 370 287.9281826727313 1 1
855 370 333.10730690571677 0.5 0.6666666666666666
753 850 148.94351739463454 1 1
857 850 92.17207645701092 0.5 0.6666666666666666
949 950 278.8202805960142 0.5 0.6666666666666666
858 951 300.00000000000006 0.5 0.6666666666666666
952 953 225.97149658493433 0.5 0.6666666666666666
859 954 300.00000000000017 0.5 0.6666666666666666
381 473 187.1216174801576 0.5 0.6666666666666666
862 473 279.85914506485136 0.5 0.6666666666666666
474 588 277.4194586753159 0.5 0.6666666666666666
862 588 105.3669596496263 0.5 0.6666666666666666
659 955 17.919720395942484 1 1
863 955 108.79349463699648 0.5 0.6666666666666666
955 752 22.493478396428113 1 1
864 752 147.8835581122882 0.5 0.6666666666666666
759 856 185.22799378199517 0.5 0.6666666666666666
865 856 117.16030902598509 0.5 0.6666666666666666
131 466 196.50543746492397 0.5 0.6666666666666666
866 466 290.17359373162674 0.5 0.6666666666666666
956 957 274.9777201042513 0.5 0.6666666666666666
868 958 300.0000000000001 0.5 0.6666666666666666
869 959 299.99999999999994 0.5 0.6666666666666666
869 960 300.00000000000017 0.5 0.6666666666666666
870 592 309.11155164563536 0.5 0.6666666666666666
870 591 307.12648066505477 0.5 0.6666666666666666
961 962 0.10888108236421463 0.5 0.6666666666666666
871 963 300.00000000000017 0.5 0.6666666666666666
595 687 11.682258950310363 0.5 0.6666666666666666
872 687 265.80919413411414 0.5 0.6666666666666666
872 964 300.00000000000017 0.5 0.6666666666666666
180 243 265.3299981748882 0.5 0.6666666666666666
873 243 291.0919535834728 0.5 0.6666666666666666
242 312 16.393663826182003 0.5 0.6666666666666666
873 312 274.18047322512797 0.5 0.6666666666666666
874 965 300.00000000000057 0.5 0.6666666666666666
871 966 230.03818051457438 0.5 0.6666666666666666
876 966 242.26574673080032 0.5 0.6666666666666666
877 967 299.99999999999915 0.5 0.6666666666666666
878 968 300.00000000000006 0.5 0.6666666666666666
969 970 3.728514733385849 0.5 0.6666666666666666
879 971 300.0000000000002 0.5 0.6666666666666666
878 969 296.2714852666143 0.5 0.6666666666666666
879 969 299.2625304719863 0.5 0.6666666666666666
972 973 116.82122323801757 0.5 0.6666666666666666
880 974 300.00000000000006 0.5 0.6666666666666666
859 952 74.02850341506587 0.5 0.6666666666666666
882 952 58.33329867566673 0.5 0.6666666666666666
884 975 299.99999999999994 0.5 0.6666666666666666
884 976 300 0.5 0.6666666666666666
811 900 108.92250324048645 0.5 0.6666666666666666
977 900 11.85782468760421 0.5 0.6666666666666666
811 901 61.05007467086039 0.5 0.6666666666666666
886 901 99.91851551138741 0.5 0.6666666666666666
888 978 300 0.5 0.6666666666666666
889 979 300.00000000000034 0.5 0.6666666666666666
889 980 299.9999999999999 0.5 0.6666666666666666
868 956 25.022279895748735 0.5 0.6666666666666666
890 956 130.5499580685893 0.5 0.6666666666666666
890 796 338.4310294750686 0.5 0.6666666666666666
892 980 283.83137757963704 0.5 0.6666666666666666
981 794 285.6386337642467 0.5 0.6666666666666666
982 983 285.49426614069176 0.5 0.6666666666666666
895 984 299.99999999999966 0.5 0.6666666666666666
895 985 300.00000000000006 0.5 0.6666666666666666
896 985 306.2146695405076 0.5 0.6666666666666666
893 982 14.505733859308394 0.5 0.6666666666666666
896 982 207.4157862000606 0.5 0.6666666666666666
898 986 300.00000000000006 0.5 0.6666666666666666
898 987 299.9999999999997 0.5 0.6666666666666666
988 989 206.21613804324448 0.5 0.6666666666666666
886 977 63.36772493327989 0.5 0.6666666666666666
899 977 182.52150691913482 0.5 0.6666666666666666
697 790 241.2678565737036 0.5 0.6666666666666666
902 790 65.71940211219503 0.5 0.6666666666666666
904 915 284.1180380819938 0.5 0.6666666666666666
827 914 11.33815247053579 0.5 0.6666666666666666
904 914 72.8683638287613 0.5 0.6666666666666666
905 990 299.99999999999886 0.5 0.6666666666666666
905 991 300 0.5 0.6666666666666666
906 992 299.99999999999994 0.5 0.6666666666666666
908 993 300.00000000000006 0.5 0.6666666666666666
994 995 2.074096923203627 0.5 0.6666666666666666
728 824 17.446439944151717 0.5 0.6666666666666666
910 824 85.91933884710795 0.5 0.6666666666666666
825 912 109.55746332826628 0.5 0.6666666666666666
910 912 293.68711623491146 0.5 0.6666666666666666
612 705 189.988082877644 0.5 0.6666666666666666
911 705 134.70892441896564 0.5 0.6666666666666666
735 830 297.6753485082745 0.5 0.6666666666666666
911 830 195.9943914986836 0.5 0.6666666666666666
909 996 28.059002681148414 0.5 0.6666666666666666
913 996 115.1889672939807 0.5 0.6666666666666666
913 997 300.0000000000001 0.5 0.6666666666666666
998 999 297.18258075223457 0.5 0.6666666666666666
828 916 1.7379981941014249 0.5 0.6666666666666666
915 916 278.8123630620559 0.5 0.6666666666666666
917 1000 299.9999999999995 0.5 0.6666666666666666
917 829 302.5218008514041 0.5 0.6666666666666666
918 1001 299.99999999999903 0.5 0.6666666666666666
919 1002 300 0.5 0.6666666666666666
920 1003 300.00000000000017 0.5 0.6666666666666666
921 1004 299.99999999999994 0.5 0.6666666666666666
921 1005 299.9999999999999 0.5 0.6666666666666666
923 1006 299.99999999999994 0.5 0.6666666666666666
924 1007 300.00000000000006 0.5 0.6666666666666666
924 1008 300.00000000000006 0.5 0.6666666666666666
1009 1010 289.3944401491187 0.5 0.6666666666666666
840 928 36.0788071107647 0.5 0.6666666666666666
927 928 295.60397186892453 0.5 0.6666666666666666
926 1009 10.605559850881432 0.5 0.6666666666666666
929 1009 60.695279813038525 0.5 0.6666666666666666
931 1011 300 0.5 0.6666666666666666
931 1012 299.99999999999994 0.5 0.6666666666666666
932 1013 300.00000000000017 0.5 0.6666666666666666
932 1014 300.0000000000001 0.5 0.6666666666666666
933 1015 299.99999999999994 0.5 0.6666666666666666
934 1016 400.00000000000017 1 1
935 1017 400.00000000000017 1 1
936 1018 400.00000000000085 1 1
938 1019 400.000000000001 1 1
1020 1021 281.54568013327236 1 1
941 1022 400.0000000000007 1 1
942 1023 400.0000000000005 1 1
1024 1025 1.9765412399106843 0.5 0.6666666666666666
669 767 86.6763667240121 0.5 0.6666666666666666
573 767 338.9590206577029 0.5 0.6666666666666666
1026 1027 161.54764853683693 0.5 0.6666666666666666
943 1028 299.99999999999983 0.5 0.6666666666666666
1029 1030 6.75707902682751 0.5 0.6666666666666666
1031 1032 147.37967672789867 0.5 0.6666666666666666
945 1033 299.99999999999983 0.5 0.6666666666666666
1034 1035 61.311755225905536 0.5 0.6666666666666666
946 1036 299.9999999999998 0.5 0.6666666666666666
943 1026 138.45235146316327 0.5 0.6666666666666666
948 1026 282.3480954634248 0.5 0.6666666666666666
1037 1038 101.38552515730332 0.5 0.6666666666666666
950 1039 299.9999999999999 0.5 0.6666666666666666
951 1040 300.00000000000006 0.5 0.6666666666666666
951 1041 299.9999999999997 0.5 0.6666666666666666
880 972 183.17877676198253 0.5 0.6666666666666666
953 972 152.1911306282919 0.5 0.6666666666666666
788 881 74.17024747376583 0.5 0.6666666666666666
953 881 287.5399386584499 0.5 0.6666666666666666
694 787 47.413246331609265 0.5 0.6666666666666666
954 787 130.83077235551767 0.5 0.6666666666666666
954 1042 299.9999999999998 0.5 0.6666666666666666
1043 1044 13.931089128547946 0.5 0.6666666666666666
1045 1046 162.75085831224797 0.5 0.6666666666666666
1047 1048 5.534085091983246 0.5 0.6666666666666666
958 1049 299.99999999999994 0.5 0.6666666666666666
1050 1051 294.45716971487 0.5 0.6666666666666666
959 1052 299.99999999999983 0.5 0.6666666666666666
958 1047 294.4659149080168 0.5 0.6666666666666666
960 1047 275.4882660024108 0.5 0.6666666666666666
1053 1054 7.193852457345145 0.5 0.6666666666666666
962 1055 299.99999999999983 0.5 0.6666666666666666
1056 1051 305.6403551385634 0.5 0.6666666666666666
963 1057 300.00000000000017 0.5 0.6666666666666666
779 875 234.404738640414 0.5 0.6666666666666666
964 875 262.46933846090985 0.5 0.6666666666666666
1058 1059 267.3514857322503 0.5 0.6666666666666666
965 877 323.52206631656367 0.5 0.6666666666666666
967 1060 299.99999999999915 0.5 0.6666666666666666
1061 1062 22.54896797409597 0.5 0.6666666666666666
915 998 2.817419247765666 0.5 0.6666666666666666
968 998 140.7892023511696 0.5 0.6666666666666666
970 1063 300.00000000000017 0.5 0.6666666666666666
970 1064 299.99999999999983 0.5 0.6666666666666666
971 1065 300.0000000000002 0.5 0.6666666666666666
973 1066 300.0000000000001 0.5 0.6666666666666666
974 1065 313.003209182313 0.5 0.6666666666666666
974 1067 299.99999999999983 0.5 0.6666666666666666
1068 1069 5.945297413690212 0.5 0.6666666666666666
976 1070 300 0.5 0.6666666666666666
976 1071 300.0000000000001 0.5 0.6666666666666666
978 508 304.51643189393553 0.5 0.6666666666666666
978 1072 299.99999999999983 0.5 0.6666666666666666
979 1073 300.00000000000034 0.5 0.6666666666666666
1074 1075 169.19370952921187 0.5 0.6666666666666666
892 981 16.77783825413514 0.5 0.6666666666666666
980 981 284.7690190794384 0.5 0.6666666666666666
1076 1077 1.9955243157630347 0.5 0.6666666666666666
983 1073 302.61458074333746 0.5 0.6666666666666666
984 1078 299.99999999999966 0.5 0.6666666666666666
984 1079 300.0000000000001 0.5 0.6666666666666666
983 1080 12.603724491784023 0.5 0.6666666666666666
985 1080 187.8845363924713 0.5 0.6666666666666666
986 1081 300.00000000000006 0.5 0.6666666666666666
987 1082 299.9999999999997 0.5 0.6666666666666666
987 1083 300.00000000000006 0.5 0.6666666666666666
791 883 232.55010399570594 0.5 0.6666666666666666
989 883 99.93878424060931 0.5 0.6666666666666666
791 885 79.31614708829277 0.5 0.6666666666666666
989 885 220.19464457838856 0.5 0.6666666666666666
990 1084 299.99999999999886 0.5 0.6666666666666666
990 1085 300 0.5 0.6666666666666666
991 1086 300 0.5 0.6666666666666666
992 1087 299.9999999999999 0.5 0.6666666666666666
820 907 297.1923084470003 0.5 0.6666666666666666
992 907 293.1864357193693 0.5 0.6666666666666666
993 1088 299.99999999999994 0.5 0.6666666666666666
802 1089 44.384421636552474 0.5 0.6666666666666666
995 1089 82.60468170565709 0.5 0.6666666666666666
706 801 197.5831936013652 0.5 0.6666666666666666
997 801 79.01677259346782 0.5 0.6666666666666666
997 911 302.8642634304667 0.5 0.6666666666666666
999 1090 299.9999999999998 0.5 0.6666666666666666
1000 1091 299.9999999999995 0.5 0.6666666666666666
1001 1092 299.99999999999903 0.5 0.6666666666666666
1002 1093 300.00000000000017 0.5 0.6666666666666666
1003 1094 300.00000000000017 0.5 0.6666666666666666
1095 1096 3.5940063939354014 0.5 0.6666666666666666
1097 1098 290.096663090706 0.5 0.6666666666666666
1003 1095 296.4059936060646 0.5 0.6666666666666666
1005 1095 279.91079695893916 0.5 0.6666666666666666
1005 1099 299.9999999999999 0.5 0.6666666666666666
1006 1100 300.00000000000017 0.5 0.6666666666666666
1006 1093 309.31351875408825 0.5 0.6666666666666666
1007 1101 300.00000000000006 0.5 0.6666666666666666
1007 1102 299.99999999999994 0.5 0.6666666666666666
740 835 24.939258042865927 0.5 0.6666666666666666
1008 835 298.8852033866403 0.5 0.6666666666666666
227 294 38.09980275857154 0.5 0.6666666666666666
1010 294 252.64433607856049 0.5 0.6666666666666666
1011 1103 300 0.5 0.6666666666666666
378 479 18.48565654814364 0.5 0.6666666666666666
1012 479 205.54395794833343 0.5 0.6666666666666666
1013 1104 300.00000000000017 0.5 0.6666666666666666
1013 1105 299.9999999999999 0.5 0.6666666666666666
1014 1106 300.0000000000001 0.5 0.6666666666666666
842 930 285.362385414692 0.5 0.6666666666666666
1014 930 295.26416440013895 0.5 0.6666666666666666
1107 1108 17.931544212543464 0.5 0.6666666666666666
1016 1109 400.00000000000017 1 1
1017 1110 400.00000000000017 1 1
1017 1111 400.0000000000001 1 1
1018 1112 400.00000000000114 1 1
1113 1114 177.9934098086465 1 1
948 1037 198.61447484269698 0.5 0.6666666666666666
1021 1037 58.93701147075853 1 1
1115 1116 269.05613488950456 1 1
1022 1117 400.00000000000045 1 1
1023 1118 400.0000000000005 1 1
651 1119 300 0.5 0.6666666666666666
654 1120 300.0000000000004 0.5 0.6666666666666666
656 1121 300.00000000000034 0.5 0.6666666666666666
658 1122 299.9999999999999 0.5 0.6666666666666666
1025 1123 299.9999999999998 0.5 0.6666666666666666
1027 1124 300.0000000000002 0.5 0.6666666666666666
1028 1125 299.99999999999983 0.5 0.6666666666666666
1126 1127 4.873778654344382 0.5 0.6666666666666666
1032 1128 299.99999999999955 0.5 0.6666666666666666
1033 1129 299.99999999999983 0.5 0.6666666666666666
1033 1130 300.00000000000017 0.5 0.6666666666666666
1035 1131 300.0000000000001 0.5 0.6666666666666666
1035 1132 299.99999999999983 0.5 0.6666666666666666
1133 1029 12.630448508775254 0.5 0.6666666666666666
1036 1029 93.78265099385095 0.5 0.6666666666666666
1038 1134 300.0000000000003 0.5 0.6666666666666666
1039 1135 299.9999999999999 0.5 0.6666666666666666
1039 1136 300.00000000000017 0.5 0.6666666666666666
946 1034 238.68824477409458 0.5 0.6666666666666666
1040 1034 175.21152777420548 0.5 0.6666666666666666
1040 1137 299.9999999999998 0.5 0.6666666666666666
1041 1138 299.9999999999997 0.5 0.6666666666666666
1139 761 115.10352294557225 0.5 0.6666666666666666
1041 761 277.9725426997307 0.5 0.6666666666666666
765 860 30.410064631041013 0.5 0.6666666666666666
1042 860 295.9191889872404 0.5 0.6666666666666666
1042 763 315.2762545008431 0.5 0.6666666666666666
1044 1140 300 0.5 0.6666666666666666
795 891 285.5827473235572 0.5 0.6666666666666666
1046 891 120.95638625933877 0.5 0.6666666666666666
980 1074 130.806290470788 0.5 0.6666666666666666
1046 1074 294.5976979589096 0.5 0.6666666666666666
1048 1141 300.0000000000001 0.5 0.6666666666666666
1048 1142 299.9999999999999 0.5 0.6666666666666666
682 774 291.60024200499953 0.5 0.6666666666666666
1049 774 287.99697028132584 0.5 0.6666666666666666
773 867 2.4216034074308563 0.5 0.6666666666666666
1049 867 295.7069778700128 0.5 0.6666666666666666
1051 1143 299.99999999999994 0.5 0.6666666666666666
1052 776 327.2108002736392 0.5 0.6666666666666666
963 1056 30.287009463212733 0.5 0.6666666666666666
1052 1056 295.2167230360093 0.5 0.6666666666666666
1054 1144 300.00000000000006 0.5 0.6666666666666666
959 1050 5.542830285129911 0.5 0.6666666666666666
1054 1050 293.3216277101705 0.5 0.6666666666666666
1055 1145 299.99999999999983 0.5 0.6666666666666666
1146 1147 16.34200729315494 0.5 0.6666666666666666
1055 1146 283.6579927068448 0.5 0.6666666666666666
1057 1146 299.12002790278615 0.5 0.6666666666666666
966 961 69.85293840306122 0.5 0.6666666666666666
1057 961 291.8273944960323 0.5 0.6666666666666666
1059 1148 300.00000000000057 0.5 0.6666666666666666
1059 967 328.2264807749371 0.5 0.6666666666666666
1060 1149 299.99999999999915 0.5 0.6666666666666666
1060 1148 332.9308955922622 0.5 0.6666666666666666
1063 1150 300.00000000000017 0.5 0.6666666666666666
1064 1151 299.99999999999983 0.5 0.6666666666666666
1065 1152 300.0000000000002 0.5 0.6666666666666666
1066 1153 300.0000000000001 0.5 0.6666666666666666
1067 1154 299.99999999999983 0.5 0.6666666666666666
692 782 297.7346672196529 0.5 0.6666666666666666
1067 782 298.5772347798763 0.5 0.6666666666666666
1069 1155 299.99999999999994 0.5 0.6666666666666666
1069 1156 299.99999999999994 0.5 0.6666666666666666
1070 1157 300 0.5 0.6666666666666666
1071 1158 300.0000000000001 0.5 0.6666666666666666
1073 1159 300.00000000000085 0.5 0.6666666666666666
1073 1080 302.48460575222026 0.5 0.6666666666666666
957 1043 286.0689108714521 0.5 0.6666666666666666
1075 1043 115.84899896763065 0.5 0.6666666666666666
957 1045 137.2491416877519 0.5 0.6666666666666666
1075 1045 289.93730014799814 0.5 0.6666666666666666
1077 1160 300.0000000000001 0.5 0.6666666666666666
1161 1162 287.2565638097628 0.5 0.6666666666666666
1080 1076 285.4007511924531 0.5 0.6666666666666666
1079 1076 194.27372519980443 0.5 0.6666666666666666
1081 1163 299.99999999999983 0.5 0.6666666666666666
1081 1164 300 0.5 0.6666666666666666
1083 1165 300.00000000000006 0.5 0.6666666666666666
1084 1166 299.99999999999886 0.5 0.6666666666666666
1084 1167 300 0.5 0.6666666666666666
1085 1168 300 0.5 0.6666666666666666
1085 1169 299.99999999999994 0.5 0.6666666666666666
1086 1170 299.99999999999994 0.5 0.6666666666666666
1086 1171 299.9999999999996 0.5 0.6666666666666666
1087 984 318.5025480695275 0.5 0.6666666666666666
1089 894 237.6351273017966 0.5 0.6666666666666666
1088 894 53.73605331051663 0.5 0.6666666666666666
996 994 269.866900395648 0.5 0.6666666666666666
1088 994 239.70932787097243 0.5 0.6666666666666666
1090 1172 299.9999999999993 0.5 0.6666666666666666
1091 1173 299.9999999999995 0.5 0.6666666666666666
1092 1174 299.99999999999903 0.5 0.6666666666666666
1093 1175 300.00000000000017 0.5 0.6666666666666666
1094 1176 300.00000000000017 0.5 0.6666666666666666
1096 1177 300 0.5 0.6666666666666666
1096 1178 299.99999999999983 0.5 0.6666666666666666
1098 1179 300.00000000000017 0.5 0.6666666666666666
1099 1180 299.9999999999999 0.5 0.6666666666666666
1004 1097 9.903336909293985 0.5 0.6666666666666666
1099 1097 285.04739849683574 0.5 0.6666666666666666
1181 1182 50.19262291487699 0.5 0.6666666666666666
1101 1183 300.00000000000006 0.5 0.6666666666666666
836 925 10.533970174886505 0.5 0.6666666666666666
1102 925 298.4191139199239 0.5 0.6666666666666666
178 234 31.310230349255992 1 1
1103 234 206.2136964101789 0.5 0.6666666666666666
131 177 136.13864012149796 1 1
1103 177 203.86734866121242 0.5 0.6666666666666666
1184 1185 213.651980465999 0.5 0.6666666666666666
1104 1186 299.9999999999999 0.5 0.6666666666666666
1105 1187 299.9999999999999 0.5 0.6666666666666666
1105 1014 306.9954491985173 0.5 0.6666666666666666
1106 1188 300.0000000000001 0.5 0.6666666666666666
1106 1187 313.9909808599102 0.5 0.6666666666666666
1100 1181 249.80737708512316 0.5 0.6666666666666666
1108 1181 184.33992050560983 0.5 0.6666666666666666
1109 1189 400.00000000000017 1 1
1110 1190 400 1 1
1111 1191 400.00000000000006 1 1
1112 1192 400.00000000000085 1 1
1114 1193 400.000000000001 1 1
1116 1194 400.0000000000005 1 1
1116 1195 400.0000000000004 1 1
1117 1196 400.00000000000017 1 1
1118 1197 400.0000000000005 1 1
747 1198 300.00000000000006 0.5 0.6666666666666666
748 1199 299.9999999999996 0.5 0.6666666666666666
751 1200 300.0000000000001 0.5 0.6666666666666666
1119 1201 300 0.5 0.6666666666666666
1120 1202 300.0000000000004 0.5 0.6666666666666666
1203 1204 0.5280045892010176 0.5 0.6666666666666666
1121 1205 300.00000000000034 0.5 0.6666666666666666
1121 1206 300.0000000000001 0.5 0.6666666666666666
373 1207 16.054136493441767 1 1
1122 1207 77.85808358988288 0.5 0.6666666666666666
1122 1208 299.9999999999996 0.5 0.6666666666666666
1209 1210 10.81443622259647 0.5 0.6666666666666666
1123 1211 300.0000000000002 0.5 0.6666666666666666
1124 1212 300.0000000000002 0.5 0.6666666666666666
1125 1213 299.99999999999983 0.5 0.6666666666666666
1214 1215 4.185355859627181 0.5 0.6666666666666666
1127 1216 300 0.5 0.6666666666666666
1128 1217 299.99999999999955 0.5 0.6666666666666666
1129 1218 299.99999999999983 0.5 0.6666666666666666
1130 1219 300.00000000000017 0.5 0.6666666666666666
1130 1220 299.99999999999994 0.5 0.6666666666666666
1131 1221 300.0000000000001 0.5 0.6666666666666666
1131 1222 299.9999999999996 0.5 0.6666666666666666
1030 1126 295.12622134565595 0.5 0.6666666666666666
1132 1126 90.56955824999177 0.5 0.6666666666666666
1132 1036 301.3948428176774 0.5 0.6666666666666666
1134 1223 300.0000000000003 0.5 0.6666666666666666
1134 1224 299.99999999999966 0.5 0.6666666666666666
1225 1226 143.6558481868345 0.5 0.6666666666666666
1227 1228 14.420224569403878 0.5 0.6666666666666666
1104 1184 86.34801953400141 0.5 0.6666666666666666
1136 1184 216.97191660453078 0.5 0.6666666666666666
1136 1229 300.00000000000017 0.5 0.6666666666666666
1137 1230 299.9999999999998 0.5 0.6666666666666666
235 302 235.35250140384434 1 1
1138 302 280.83141746700966 0.5 0.6666666666666666
1140 1231 300 0.5 0.6666666666666666
1232 1233 3.1263940624545987 0.5 0.6666666666666666
960 1053 292.8061475426549 0.5 0.6666666666666666
1141 1053 269.9631102007329 0.5 0.6666666666666666
1142 1234 299.9999999999999 0.5 0.6666666666666666
1143 1235 299.99999999999994 0.5 0.6666666666666666
1144 1236 300.00000000000006 0.5 0.6666666666666666
1141 1232 296.8736059375455 0.5 0.6666666666666666
1144 1232 264.08562218540834 0.5 0.6666666666666666
1145 1237 299.99999999999983 0.5 0.6666666666666666
1145 1238 300.00000000000017 0.5 0.6666666666666666
1147 1239 299.9999999999997 0.5 0.6666666666666666
1147 1240 300.00000000000017 0.5 0.6666666666666666
1148 1241 300.00000000000057 0.5 0.6666666666666666
1149 1242 299.99999999999915 0.5 0.6666666666666666
1150 1243 300.00000000000017 0.5 0.6666666666666666
1150 1244 300 0.5 0.6666666666666666
1151 1245 300.0000000000003 0.5 0.6666666666666666
968 1061 277.4510320259041 0.5 0.6666666666666666
1151 1061 250.0259953692155 0.5 0.6666666666666666
1246 1247 1.2513709885926758 0.5 0.6666666666666666
1248 1249 182.24616369751567 0.5 0.6666666666666666
598 690 295.961164391741 0.5 0.6666666666666666
1154 690 282.6576986091721 0.5 0.6666666666666666
1154 879 307.72366078078494 0.5 0.6666666666666666
1250 1251 40.79724908396363 0.5 0.6666666666666666
1155 1252 299.99999999999994 0.5 0.6666666666666666
1156 1253 299.99999999999994 0.5 0.6666666666666666
1156 1254 299.99999999999994 0.5 0.6666666666666666
1157 1255 300 0.5 0.6666666666666666
1157 1256 299.9999999999999 0.5 0.6666666666666666
1158 1252 308.73730492380776 0.5 0.6666666666666666
975 1068 294.05470258630976 0.5 0.6666666666666666
1158 1068 282.0611148618764 0.5 0.6666666666666666
1159 1257 300.00000000000085 0.5 0.6666666666666666
1159 1258 300.00000000000006 0.5 0.6666666666666666
1160 1259 300.0000000000001 0.5 0.6666666666666666
1260 1261 283.62714461198783 0.5 0.6666666666666666
1162 1262 300 0.5 0.6666666666666666
1163 1263 299.99999999999983 0.5 0.6666666666666666
1163 1264 300.00000000000017 0.5 0.6666666666666666
1265 1266 186.84815591258743 0.5 0.6666666666666666
1165 1264 302.64003204462784 0.5 0.6666666666666666
1166 1267 299.99999999999886 0.5 0.6666666666666666
1268 1269 19.89130636027453 0.5 0.6666666666666666
1167 1270 300 0.5 0.6666666666666666
1166 1268 280.10869363972546 0.5 0.6666666666666666
1167 1268 296.0735790539523 0.5 0.6666666666666666
1271 1272 242.0664672266586 0.5 0.6666666666666666
1168 1273 299.9999999999998 0.5 0.6666666666666666
1169 1274 299.99999999999994 0.5 0.6666666666666666
1169 1273 302.7835663443859 0.5 0.6666666666666666
1170 1275 299.99999999999994 0.5 0.6666666666666666
1170 1276 300.00000000000034 0.5 0.6666666666666666
1171 906 316.55309253078565 0.5 0.6666666666666666
1171 1277 300 0.5 0.6666666666666666
1278 1279 4.290311285070755 0.5 0.6666666666666666
1280 1281 224.96190305053887 0.5 0.6666666666666666
1282 1283 299.32460423628584 0.5 0.6666666666666666
1284 1092 262.37823250055754 0.5 0.6666666666666666
1168 1271 57.9335327733414 0.5 0.6666666666666666
1174 1271 25.51144193642871 0.5 0.6666666666666666
1175 1285 300.00000000000017 0.5 0.6666666666666666
1176 1286 300.00000000000017 0.5 0.6666666666666666
1176 1287 300 0.5 0.6666666666666666
1177 1288 300 0.5 0.6666666666666666
1178 1289 299.99999999999983 0.5 0.6666666666666666
1179 1290 300.0000000000004 0.5 0.6666666666666666
1291 1292 299.36434932470706 0.5 0.6666666666666666
1180 1288 268.9598874400138 0.5 0.6666666666666666
1293 1227 52.75244426476684 0.5 0.6666666666666666
1294 1227 19.49791922435588 0.5 0.6666666666666666
365 452 34.63788690259356 0.5 0.6666666666666666
1183 452 229.19298631694897 0.5 0.6666666666666666
453 561 233.72980412366866 0.5 0.6666666666666666
1183 561 263.80203774459113 0.5 0.6666666666666666
1135 1293 232.82733116582935 0.5 0.6666666666666666
1185 1293 210.7004564715767 0.5 0.6666666666666666
1015 1107 282.06845578745646 0.5 0.6666666666666666
1295 1107 44.68453188398276 0.5 0.6666666666666666
1296 1297 224.95409726211557 0.5 0.6666666666666666
1187 1298 299.9999999999999 0.5 0.6666666666666666
1188 1299 300.00000000000057 0.5 0.6666666666666666
1188 1298 320.9865895926298 0.5 0.6666666666666666
1189 1300 400 1 1
1190 1301 400.0000000000002 1 1
1153 1248 117.75383630248442 0.5 0.6666666666666666
1191 1248 213.4375235795684 1 1
1192 1302 400.0000000000011 1 1
1022 1115 130.94386511049612 1 1
1193 1115 424.05762253416304 1 1
1194 1303 400.00000000000057 1 1
1195 1304 400.00000000000034 1 1
1196 1305 400.0000000000002 1 1
1196 1306 400.00000000000034 1 1
1197 1307 400.0000000000005 1 1
846 1308 300.00000000000006 0.5 0.6666666666666666
849 1309 300.0000000000002 0.5 0.6666666666666666
1310 1311 184.84209064310141 0.5 0.6666666666666666
1199 1312 299.9999999999996 0.5 0.6666666666666666
1313 1314 148.94865761016288 0.5 0.6666666666666666
1198 1310 115.15790935689864 0.5 0.6666666666666666
1201 1310 182.24078996720303 0.5 0.6666666666666666
1201 1315 299.99999999999966 0.5 0.6666666666666666
1202 1316 300.0000000000004 0.5 0.6666666666666666
1202 1317 299.99999999999994 0.5 0.6666666666666666
1204 1318 300.00000000000034 0.5 0.6666666666666666
1200 1313 151.0513423898372 0.5 0.6666666666666666
1205 1313 269.642077578925 0.5 0.6666666666666666
1205 1319 299.9999999999998 0.5 0.6666666666666666
572 657 286.53244129466 1 1
1206 657 98.52361294395425 0.5 0.6666666666666666
572 655 89.58321695801995 1 1
1206 655 289.77188921239394 0.5 0.6666666666666666
460 1320 100.53163187011887 1 1
1208 1320 87.19311415338383 0.5 0.6666666666666666
1207 459 294.2800575201188 1 1
1208 459 95.33536780889042 0.5 0.6666666666666666
1210 1321 299.9999999999998 0.5 0.6666666666666666
1211 1322 300.0000000000002 0.5 0.6666666666666666
1211 1323 300.00000000000045 0.5 0.6666666666666666
1324 1325 104.93775165818985 0.5 0.6666666666666666
1212 1326 300.0000000000003 0.5 0.6666666666666666
1327 1328 6.334671890899621 0.5 0.6666666666666666
1123 1209 289.1855637774033 0.5 0.6666666666666666
1216 1209 107.08530751970527 0.5 0.6666666666666666
1216 1329 300.00000000000017 0.5 0.6666666666666666
848 937 286.7461828411561 1 1
1217 937 311.35588243522983 0.5 0.6666666666666666
1217 1330 299.9999999999998 0.5 0.6666666666666666
1331 1332 262.96488619221896 0.5 0.6666666666666666
1219 1330 304.7145867021875 0.5 0.6666666666666666
1333 1334 83.70539347397687 0.5 0.6666666666666666
1335 1336 234.88616626380258 0.5 0.6666666666666666
1221 1337 300.0000000000001 0.5 0.6666666666666666
1127 1214 295.8146441403731 0.5 0.6666666666666666
1222 1214 87.38709530648337 0.5 0.6666666666666666
1222 1338 299.99999999999983 0.5 0.6666666666666666
1223 1339 300.0000000000003 0.5 0.6666666666666666
1223 1340 300 0.5 0.6666666666666666
851 947 147.12622777839735 1 1
1224 947 321.2185258029275 0.5 0.6666666666666666
940 1020 118.45431986672783 1 1
1224 1020 221.50296803421358 0.5 0.6666666666666666
1341 1342 25.767024834593812 0.5 0.6666666666666666
1226 1343 300 0.5 0.6666666666666666
1185 1295 246.40742409074042 0.5 0.6666666666666666
1228 1295 263.73713738298176 0.5 0.6666666666666666
1182 1294 180.75574112367053 0.5 0.6666666666666666
1228 1294 13.86453495309903 0.5 0.6666666666666666
1344 1296 24.49645537379458 0.5 0.6666666666666666
1229 1296 16.708236106119664 0.5 0.6666666666666666
1186 1344 50.549447364089744 0.5 0.6666666666666666
1229 1344 18.05527610971696 0.5 0.6666666666666666
303 372 152.85955484571699 1 1
1230 372 255.6256748548381 0.5 0.6666666666666666
1231 1345 299.99999999999955 0.5 0.6666666666666666
1346 1347 10.422312615472785 0.5 0.6666666666666666
1233 1348 299.99999999999994 0.5 0.6666666666666666
1234 1349 299.9999999999999 0.5 0.6666666666666666
1234 1350 299.99999999999983 0.5 0.6666666666666666
1351 1352 287.1801735659172 0.5 0.6666666666666666
1236 1353 299.9999999999996 0.5 0.6666666666666666
1233 1346 289.5776873845273 0.5 0.6666666666666666
1236 1346 258.6058439484626 0.5 0.6666666666666666
1237 1354 299.9999999999998 0.5 0.6666666666666666
965 1058 32.64851426775027 0.5 0.6666666666666666
1238 1058 212.79964922581476 0.5 0.6666666666666666
1235 1351 12.81982643408271 0.5 0.6666666666666666
1239 1351 54.1609100290503 0.5 0.6666666666666666
1239 1355 299.99999999999966 0.5 0.6666666666666666
1240 1356 300.00000000000017 0.5 0.6666666666666666
1240 1145 307.57601353513695 0.5 0.6666666666666666
1241 1357 300.00000000000057 0.5 0.6666666666666666
1243 1358 300.00000000000017 0.5 0.6666666666666666
1152 1359 25.81576854256847 0.5 0.6666666666666666
1243 1359 297.5958095492088 0.5 0.6666666666666666
1244 1360 300 0.5 0.6666666666666666
1172 1280 75.03809694946113 0.5 0.6666666666666666
1245 1280 221.34371150499095 0.5 0.6666666666666666
1245 1361 300 0.5 0.6666666666666666
1247 1362 300.0000000000002 0.5 0.6666666666666666
1249 1363 300.0000000000005 0.5 0.6666666666666666
1251 1364 299.99999999999994 0.5 0.6666666666666666
1252 1365 299.99999999999994 0.5 0.6666666666666666
1253 1366 299.99999999999994 0.5 0.6666666666666666
1254 1367 299.99999999999994 0.5 0.6666666666666666
1254 975 301.48516049290635 0.5 0.6666666666666666
1255 1368 299.99999999999955 0.5 0.6666666666666666
1255 1369 300 0.5 0.6666666666666666
1256 1370 299.99999999999983 0.5 0.6666666666666666
1256 1371 299.99999999999994 0.5 0.6666666666666666
1257 1372 300.00000000000085 0.5 0.6666666666666666
1373 1374 11.18441208974635 0.5 0.6666666666666666
1258 1375 300.00000000000006 0.5 0.6666666666666666
1257 1373 288.8155879102534 0.5 0.6666666666666666
1258 1373 285.5051942446793 0.5 0.6666666666666666
1376 1377 283.86032617141416 0.5 0.6666666666666666
1261 1378 299.99999999999966 0.5 0.6666666666666666
1261 1379 299.99999999999994 0.5 0.6666666666666666
1259 1376 16.139673828585995 0.5 0.6666666666666666
1262 1376 208.22853545222674 0.5 0.6666666666666666
1263 1380 299.99999999999983 0.5 0.6666666666666666
1263 1381 299.9999999999999 0.5 0.6666666666666666
1264 1382 300.00000000000017 0.5 0.6666666666666666
1266 1383 300 0.5 0.6666666666666666
1267 1384 299.99999999999886 0.5 0.6666666666666666
1267 1385 299.99999999999994 0.5 0.6666666666666666
1269 1386 300 0.5 0.6666666666666666
1269 1387 299.9999999999998 0.5 0.6666666666666666
1270 1388 300 0.5 0.6666666666666666
1270 1389 300.00000000000034 0.5 0.6666666666666666
1390 1391 235.78393576337376 0.5 0.6666666666666666
1173 1284 42.665369882442995 0.5 0.6666666666666666
1392 1284 300.79314593278787 0.5 0.6666666666666666
1273 1393 299.9999999999998 0.5 0.6666666666666666
1273 1394 299.99999999999994 0.5 0.6666666666666666
1274 1385 301.4990457912148 0.5 0.6666666666666666
1162 1260 16.37285538801183 0.5 0.6666666666666666
1275 1260 247.33051015604462 0.5 0.6666666666666666
1276 1388 313.16965955518447 0.5 0.6666666666666666
1276 1389 287.42157838046916 0.5 0.6666666666666666
1277 1395 300 0.5 0.6666666666666666
1279 1391 347.66722732565165 0.5 0.6666666666666666
1173 1282 0.6753957637136639 0.5 0.6666666666666666
1279 1282 236.4526150904941 0.5 0.6666666666666666
1281 1396 300.0000000000002 0.5 0.6666666666666666
1281 1397 299.99999999999994 0.5 0.6666666666666666
1272 1390 64.21606423662624 0.5 0.6666666666666666
1283 1390 37.67033623186462 0.5 0.6666666666666666
1272 1392 34.86582431721852 0.5 0.6666666666666666
1283 1392 61.91472050983503 0.5 0.6666666666666666
1135 1225 156.3441518131654 0.5 0.6666666666666666
1285 1225 294.49545613762035 0.5 0.6666666666666666
1226 1398 256.3912455137212 0.5 0.6666666666666666
1285 1398 282.6299739714657 0.5 0.6666666666666666
1288 1399 300.0000000000002 0.5 0.6666666666666666
1180 1291 0.6356506752928205 0.5 0.6666666666666666
1288 1291 268.9610410268925 0.5 0.6666666666666666
1289 1400 299.99999999999983 0.5 0.6666666666666666
1289 1176 305.3040644633034 0.5 0.6666666666666666
1401 1402 79.96176781829239 0.5 0.6666666666666666
1403 1404 58.91116690380493 0.5 0.6666666666666666
1290 1403 241.08883309619526 0.5 0.6666666666666666
1292 1403 294.12525796113636 0.5 0.6666666666666666
858 949 21.179719403985732 0.5 0.6666666666666666
1297 949 161.32762020577727 0.5 0.6666666666666666
663 1139 183.37238447069367 0.5 0.6666666666666666
1298 1139 154.21144329903484 0.5 0.6666666666666666
235 1405 32.420558136970946 0.5 0.6666666666666666
1299 1405 156.68893867186415 0.5 0.6666666666666666
1405 662 219.34640889220339 0.5 0.6666666666666666
1299 662 157.8519482996455 0.5 0.6666666666666666
1300 1406 400 1 1
1301 1407 400.0000000000002 1 1
1302 1408 400.0000000000011 1 1
1303 1409 400.0000000000007 1 1
1304 1410 400.00000000000017 1 1
945 1031 152.62032327210093 0.5 0.6666666666666666
1305 1031 435.07490923490417 1 1
1019 1113 222.00659019135452 1 1
1306 1113 274.82469545461214 1 1
1307 1411 400.0000000000005 1 1
935 1412 300.0000000000003 0.5 0.6666666666666666
938 1413 300.00000000000006 0.5 0.6666666666666666
942 1414 300.00000000000006 0.5 0.6666666666666666
1308 1415 300.00000000000006 0.5 0.6666666666666666
1308 1416 299.99999999999983 0.5 0.6666666666666666
1218 1331 37.03511380778101 0.5 0.6666666666666666
1309 1331 224.67698399683889 0.5 0.6666666666666666
1417 1418 31.802391046487223 0.5 0.6666666666666666
1311 1419 300.00000000000006 0.5 0.6666666666666666
1311 1420 299.99999999999983 0.5 0.6666666666666666
1312 1421 299.9999999999996 0.5 0.6666666666666666
1312 1422 299.99999999999983 0.5 0.6666666666666666
1220 1335 65.11383373619712 0.5 0.6666666666666666
1314 1335 215.15752212272957 0.5 0.6666666666666666
1220 1333 216.29460652602307 0.5 0.6666666666666666
1314 1333 70.43593733864408 0.5 0.6666666666666666
1315 1423 299.99999999999926 0.5 0.6666666666666666
1316 1424 300.0000000000004 0.5 0.6666666666666666
1316 1425 300 0.5 0.6666666666666666
1317 1426 299.99999999999994 0.5 0.6666666666666666
1120 1203 299.4719954107993 0.5 0.6666666666666666
1317 1203 290.5411192177413 0.5 0.6666666666666666
1320 571 236.81907413350035 1 1
1318 571 221.58733506320556 0.5 0.6666666666666666
460 569 202.01940921903386 1 1
1318 569 327.203514253738 0.5 0.6666666666666666
658 750 197.7044386800177 1 1
1319 750 122.24453796704186 0.5 0.6666666666666666
1321 1427 299.9999999999998 0.5 0.6666666666666666
1321 1428 299.9999999999999 0.5 0.6666666666666666
1322 1429 300.0000000000002 0.5 0.6666666666666666
1322 1430 300.0000000000002 0.5 0.6666666666666666
570 653 291.5149262062231 1 1
1323 653 297.3277034636658 0.5 0.6666666666666666
570 1024 298.02345876008906 0.5 0.6666666666666666
1323 1024 295.73235044506134 0.5 0.6666666666666666
1325 1431 300.0000000000002 0.5 0.6666666666666666
1325 1432 299.99999999999994 0.5 0.6666666666666666
1328 1433 300.00000000000034 0.5 0.6666666666666666
1434 1435 220.52464797208899 0.5 0.6666666666666666
1329 1436 300.00000000000017 0.5 0.6666666666666666
944 1133 280.61247246439757 0.5 0.6666666666666666
1329 1133 299.499219582703 0.5 0.6666666666666666
1330 1437 299.9999999999998 0.5 0.6666666666666666
1330 1438 300.00000000000006 0.5 0.6666666666666666
237 304 286.07361397743864 1 1
1332 304 60.92010183511836 0.5 0.6666666666666666
1309 1417 268.19760895351277 0.5 0.6666666666666666
1332 1417 239.80094636738573 0.5 0.6666666666666666
1334 1439 299.99999999999994 0.5 0.6666666666666666
1334 1331 335.59762901067694 0.5 0.6666666666666666
1336 1437 309.71160614288084 0.5 0.6666666666666666
1337 1440 300.0000000000001 0.5 0.6666666666666666
1328 1434 79.47535202791111 0.5 0.6666666666666666
1338 1434 0.8569531779901385 0.5 0.6666666666666666
1215 1327 293.6653281091007 0.5 0.6666666666666666
1338 1327 79.57044730783808 0.5 0.6666666666666666
1339 1441 300.0000000000003 0.5 0.6666666666666666
1339 1442 299.9999999999998 0.5 0.6666666666666666
1212 1324 195.06224834181037 0.5 0.6666666666666666
1340 1324 215.7008545380583 0.5 0.6666666666666666
1340 1443 299.99999999999994 0.5 0.6666666666666666
1290 1401 220.038232181708 0.5 0.6666666666666666
1342 1401 88.15452617959838 0.5 0.6666666666666666
1343 1444 300 0.5 0.6666666666666666
1445 1446 283.71454204631453 0.5 0.6666666666666666
1347 1447 300.0000000000001 0.5 0.6666666666666666
1348 1448 299.99999999999994 0.5 0.6666666666666666
1349 1449 299.99999999999943 0.5 0.6666666666666666
1349 1450 299.99999999999983 0.5 0.6666666666666666
1350 1448 301.54851200730593 0.5 0.6666666666666666
1451 1452 281.1184346751651 0.5 0.6666666666666666
1352 1453 299.99999999999983 0.5 0.6666666666666666
1353 1453 305.556322745338 0.5 0.6666666666666666
1354 1454 299.9999999999998 0.5 0.6666666666666666
1354 1455 300.00000000000006 0.5 0.6666666666666666
1355 1456 299.99999999999966 0.5 0.6666666666666666
1352 1451 18.881565324834845 0.5 0.6666666666666666
1355 1451 81.86054625812665 0.5 0.6666666666666666
1356 1457 300.00000000000017 0.5 0.6666666666666666
1356 1237 315.15218393598843 0.5 0.6666666666666666
1357 1458 300.00000000000057 0.5 0.6666666666666666
1357 1242 342.3397262445747 0.5 0.6666666666666666
1358 1459 300.00000000000017 0.5 0.6666666666666666
1359 1246 272.93286046883907 0.5 0.6666666666666666
1358 1246 296.97258484453994 0.5 0.6666666666666666
1360 1460 300.00000000000045 0.5 0.6666666666666666
1360 1461 300.0000000000001 0.5 0.6666666666666666
1361 1460 348.0959122620338 0.5 0.6666666666666666
1361 1461 301.9074146402812 0.5 0.6666666666666666
1362 1462 300.0000000000002 0.5 0.6666666666666666
1363 1463 300.0000000000005 0.5 0.6666666666666666
1363 1464 300.0000000000001 0.5 0.6666666666666666
1364 1465 299.99999999999994 0.5 0.6666666666666666
1364 1466 299.99999999999994 0.5 0.6666666666666666
1365 1467 300.0000000000004 0.5 0.6666666666666666
1365 1468 299.99999999999994 0.5 0.6666666666666666
1164 1265 113.15184408741258 0.5 0.6666666666666666
1366 1265 141.69087254207452 0.5 0.6666666666666666
1366 1469 299.99999999999994 0.5 0.6666666666666666
899 988 93.78386195675542 0.5 0.6666666666666666
1367 988 106.46392365653462 0.5 0.6666666666666666
1368 1470 299.99999999999955 0.5 0.6666666666666666
1368 1471 299.9999999999999 0.5 0.6666666666666666
1369 1472 300 0.5 0.6666666666666666
1369 1473 299.9999999999999 0.5 0.6666666666666666
1370 887 315.9474822672504 0.5 0.6666666666666666
1371 1474 299.99999999999994 0.5 0.6666666666666666
1371 1475 299.99999999999983 0.5 0.6666666666666666
1372 1476 300.00000000000085 0.5 0.6666666666666666
1372 1477 300.00000000000006 0.5 0.6666666666666666
1374 1478 299.9999999999995 0.5 0.6666666666666666
1374 1477 296.75857305775145 0.5 0.6666666666666666
1345 1445 16.28545795368544 0.5 0.6666666666666666
1375 1445 92.04896588324247 0.5 0.6666666666666666
1375 1479 299.9999999999998 0.5 0.6666666666666666
1480 1481 288.5212754912961 0.5 0.6666666666666666
1377 1476 272.6516786211445 0.5 0.6666666666666666
1378 1482 299.99999999999966 0.5 0.6666666666666666
1377 1480 11.47872450870406 0.5 0.6666666666666666
1379 1480 214.77581209250886 0.5 0.6666666666666666
1379 1483 299.9999999999996 0.5 0.6666666666666666
1155 1250 259.20275091603634 0.5 0.6666666666666666
1380 1250 229.27461323842232 0.5 0.6666666666666666
1380 1484 300 0.5 0.6666666666666666
1381 1485 299.9999999999999 0.5 0.6666666666666666
1382 1486 300.00000000000017 0.5 0.6666666666666666
711 812 97.3241424599353 0.5 0.6666666666666666
1383 812 308.6189702160762 0.5 0.6666666666666666
1384 1487 299.99999999999886 0.5 0.6666666666666666
1384 1488 300 0.5 0.6666666666666666
1489 1490 32.39108782977881 0.5 0.6666666666666666
1386 1491 300.00000000000006 0.5 0.6666666666666666
1387 1492 299.9999999999998 0.5 0.6666666666666666
1387 1493 300 0.5 0.6666666666666666
1388 1494 299.99999999999994 0.5 0.6666666666666666
1389 1086 309.6493610399166 0.5 0.6666666666666666
1495 1496 28.979517808589026 0.5 0.6666666666666666
1385 1489 267.6089121702212 0.5 0.6666666666666666
1393 1489 299.39559982177855 0.5 0.6666666666666666
1394 1497 299.99999999999994 0.5 0.6666666666666666
1394 1498 300 0.5 0.6666666666666666
1078 1161 12.743436190236864 0.5 0.6666666666666666
1395 1161 279.9515858262187 0.5 0.6666666666666666
1391 1495 271.02048219141096 0.5 0.6666666666666666
1397 1495 348.21734771141683 0.5 0.6666666666666666
1172 1278 295.7096887149286 0.5 0.6666666666666666
1397 1278 291.5235326342058 0.5 0.6666666666666666
1399 1499 300 0.5 0.6666666666666666
1399 1500 299.9999999999999 0.5 0.6666666666666666
1400 1501 299.99999999999983 0.5 0.6666666666666666
1400 1502 299.99999999999983 0.5 0.6666666666666666
1402 1503 300.0000000000004 0.5 0.6666666666666666
1398 1341 17.841729651684922 0.5 0.6666666666666666
1402 1341 83.93227015346332 0.5 0.6666666666666666
